<?xml version="1.0" encoding="utf-8"?>
<!-- Generator: Adobe Illustrator 16.0.0, SVG Export Plug-In . SVG Version: 6.00 Build 0)  -->
<!DOCTYPE svg PUBLIC "-//W3C//DTD SVG 1.1//EN" "http://www.w3.org/Graphics/SVG/1.1/DTD/svg11.dtd">
<svg version="1.1" id="Layer_1" xmlns="http://www.w3.org/2000/svg" xmlns:xlink="http://www.w3.org/1999/xlink" x="0px" y="0px"
	 width="15px" height="15px" viewBox="0 0 15 15" enable-background="new 0 0 15 15" xml:space="preserve">
<g>
	<path fill="#E22030" d="M5.727,10.971c-0.062-0.125-0.188-0.205-0.328-0.205H4.538V6.54c0-0.201-0.164-0.365-0.366-0.365h-2.04
		c-0.201,0-0.365,0.164-0.365,0.365v4.226H0.905c-0.14,0-0.267,0.08-0.327,0.205c-0.063,0.124-0.047,0.274,0.039,0.385l2.246,2.896
		c0.069,0.091,0.177,0.144,0.289,0.144c0.114,0,0.22-0.053,0.289-0.144l2.246-2.896C5.773,11.245,5.788,11.095,5.727,10.971z"/>
	<path fill="#E22030" d="M12.262,11.474h-2.137v1.962l-0.029,0.026H4.543l-0.75,0.918h6.476c0.113,0,0.223-0.041,0.307-0.117
		l2.449-2.191c0.096-0.086,0.154-0.212,0.154-0.342V8.847h-0.918V11.474z"/>
	<path fill="#E22030" d="M3.691,1.314h8.57v2.983h0.914V0.855c0-0.254-0.203-0.459-0.457-0.459H3.232
		c-0.255,0-0.459,0.206-0.459,0.459V5.89h0.918V1.314z"/>
	<path fill="#E22030" d="M6.866,4.751v3.69h7.595v-3.69H6.866z M9.381,6.641C9.205,6.813,8.939,6.897,8.637,6.897
		c-0.082,0-0.151-0.005-0.211-0.02v0.89H8v-2.32c0.158-0.029,0.371-0.05,0.658-0.05c0.313,0,0.541,0.067,0.691,0.191
		C9.488,5.706,9.578,5.89,9.578,6.11C9.578,6.335,9.51,6.515,9.381,6.641z M11.598,7.474c-0.232,0.212-0.605,0.32-1.064,0.32
		c-0.246,0-0.438-0.015-0.578-0.031V5.448c0.191-0.029,0.43-0.05,0.684-0.05c0.439,0,0.738,0.091,0.957,0.272
		c0.229,0.185,0.369,0.47,0.369,0.867C11.965,6.959,11.822,7.271,11.598,7.474z M13.703,5.768H12.77v0.651h0.865v0.349H12.77V7.77
		h-0.428V5.417h1.361V5.768z"/>
	<path fill="#E22030" d="M8.674,5.73c-0.117,0-0.2,0.011-0.246,0.021v0.79c0.055,0.016,0.12,0.021,0.209,0.021
		c0.32,0,0.516-0.161,0.516-0.433C9.152,5.866,8.971,5.73,8.674,5.73z"/>
	<path fill="#E22030" d="M10.676,5.735c-0.135,0-0.229,0.009-0.291,0.023v1.687c0.059,0.012,0.148,0.012,0.238,0.012
		c0.557,0.002,0.889-0.309,0.889-0.907C11.516,6.034,11.215,5.735,10.676,5.735z"/>
</g>
</svg>
