<?xml version="1.0" encoding="utf-8"?>
<!-- Generator: Adobe Illustrator 16.0.0, SVG Export Plug-In . SVG Version: 6.00 Build 0)  -->
<!DOCTYPE svg PUBLIC "-//W3C//DTD SVG 1.1//EN" "http://www.w3.org/Graphics/SVG/1.1/DTD/svg11.dtd">
<svg version="1.1" id="Layer_1" xmlns="http://www.w3.org/2000/svg" xmlns:xlink="http://www.w3.org/1999/xlink" x="0px" y="0px"
	 width="139.434px" height="27.576px" viewBox="-0.144 -0.109 139.434 27.576"
	 enable-background="new -0.144 -0.109 139.434 27.576" xml:space="preserve">
<g>
	<g opacity="0.3">
		<path d="M115.153,15.96c0.236-0.107,0.361-0.596,0.195-0.9c-0.145-0.269-0.518-0.509-0.863-0.308
			C113.651,15.235,114.573,16.228,115.153,15.96z"/>
		<path d="M130.677,22.513c0.518-0.199,0.538-1.129-0.191-0.886C129.761,21.864,130.206,22.694,130.677,22.513z"/>
		<path d="M112.603,14.833c-0.465,0.341,0.03,1.376,0.59,0.921C113.709,15.332,113.183,14.403,112.603,14.833z"/>
		<path d="M137.726,14.341c-0.357-0.515-0.709-1.027-1.066-1.542c-0.172-0.385-0.104-0.667-0.367-0.955
			c-0.373-0.406-1.128-0.763-1.029-1.565c0.258-0.184,1.148-0.391,0.6-0.975c-0.154-0.163-0.444-0.256-0.692-0.15
			c-0.217,0.096-0.278,0.254-0.424,0.419l-0.031,0.034l-0.026,0.031c-0.449-0.706-0.512-1.11-1.418-1.668
			c-1.525-0.952-3.771-0.673-5.447-0.458c-1.139,0.145-1.48,0.08-2.008-0.696c-0.963-1.405-2.483,0.696-0.078,1.354
			c0.094,0.026,0.197,0.041,0.289,0.067c0.141,0.039,0.188,0.049,0.26,0.119c-0.91,0.854-2.275,1.55-4.01,1.498
			c-2.654-0.08-1.408-3.004-3.334-3.011c-1.268-0.003-2.018,2.176,0.928,3.278c0.496,0.186,1.086,0.349,1.641,0.458
			c0.508,0.101,1.479,0.054,1.6,0.556c-0.362,0.548-2.034,0.233-3.479,2.864c-0.719,1.305-1.216,3.671-2.882,3.635
			c-1.33-0.027-1.724-1.627-2.806-1.357c-0.506,0.129-0.744,0.91-0.465,1.457c0.207,0.41,0.725,0.707,1.277,0.873
			c2.659,0.803,3.653-1.045,6.225-1.823c2.033-0.616,4.072,0.489,4.177,1.784c0.083,1.066-1.351,1.625-2.494,0.304
			c-1.33-1.532-2.392,0.118-1.354,0.958c0.414,0.339,1.096,0.398,1.732,0.417c1.691,0.049,2.08,0.724,3.021,1.487
			c2.521,2.039,3.597-0.155,4.477-0.539c0.615-0.271,1.305,0.082,1.2,0.842c-0.093,0.667-0.833,0.51-1.181,1.05
			c-0.402,0.638,0.203,1.351,0.844,0.955c0.513-0.308,0.445-1.024,1.035-1.208c0.729-0.23,1.035,0.575,0.787,1.277
			c-0.312,0.873-1.692,2.392-0.586,3.145c0.229,0.155,0.527,0.27,0.854,0.182c0.223-0.061,0.491-0.326,0.491-0.643
			c0.006-0.717-1.194-0.525-0.75-1.379c0.394-0.758,1.961-0.794,2.529-2.002c0.223,0.096,0.219,0.179,0.502,0.171
			c0.131-0.409-0.295-0.726,0.398-1.026c0.361-0.16,0.833-0.091,1.057-0.406c0.217-0.315,0.311-0.748,0.146-1.156
			c-0.321-0.781,0.19-0.613,0.093-1.264c-0.621-0.66-1.434,0.213-1.826,0.299c-0.395,0.084-0.662-0.168-1.029-0.25
			c-0.627-0.137-0.651,0.185-1.092,0.127c-0.357-0.17-0.508-1.622,0.977-0.861c0.322,0.168,0.628,0.538,1,0.497
			c0.295-0.03,0.646-0.396,0.963-0.524c0.443-0.182,0.792-0.109,1.271-0.166c0.188-0.291,0.398-0.795,0.502-1.207
			c-0.595-0.041-0.688-0.057-1.014-0.439c-0.202-0.238-0.414-0.663-0.285-1.057c0.481-0.022,0.379,0.301,0.911,0.256
			c0.937-0.077,0.466,0.111,0.952,0.195C139.308,15.517,138.181,14.908,137.726,14.341z M134.589,13.454
			c-0.637,0.652-2.227-0.779-2.227-0.779C133.921,12.344,135.226,12.799,134.589,13.454z"/>
		<path d="M128.735,6.838c0.496,0.044,0.166-0.683,0.078-0.937c-0.125-0.354-0.312-0.802-0.762-0.657
			C127.229,5.503,127.985,6.768,128.735,6.838z"/>
		<path d="M122.118,8.926c0.656-0.367,0.311-1.943-0.602-1.454C120.685,7.917,121.481,9.286,122.118,8.926z"/>
		<path d="M0.411,0.931C0.533,0.911,0.613,0.9,0.654,0.9h0.174l0.393-0.055h0.44l0.023,1.752L1.638,4.931L1.599,5.788l0.52-0.023
			l0.546,0.023L2.603,4.111V2.543l0.016-1.697h0.406L3.376,0.9H3.78l0.497,0.064l-0.016-0.37l0.016-0.339L3.198,0.287h-2.17
			c-0.117,0-0.282-0.005-0.505-0.016C0.305,0.261,0.14,0.256,0.034,0.256H0.008l0.008,0.246L0,0.98L0.411,0.931z"/>
		<path d="M5.133,1.058c0.15,0,0.277-0.054,0.383-0.163c0.106-0.111,0.158-0.233,0.158-0.37c0-0.147-0.052-0.271-0.152-0.373
			C5.418,0.052,5.291,0,5.141,0C4.999,0,4.872,0.052,4.769,0.155c-0.106,0.106-0.161,0.228-0.161,0.37
			c0,0.153,0.052,0.28,0.155,0.38C4.867,1.006,4.988,1.058,5.133,1.058z"/>
		<path d="M5.591,2.701V2.188v-0.55c-0.096,0.01-0.181,0.02-0.256,0.023C5.263,1.664,5.19,1.666,5.125,1.666H4.911L4.662,1.638
			l0.023,1.035l0.036,0.73V3.83L4.686,4.636c0,0.044-0.005,0.215-0.01,0.51c-0.008,0.295-0.013,0.5-0.013,0.616L5.13,5.738h0.106
			l0.122,0.023h0.15h0.083L5.552,4.005V3.457L5.591,2.701z"/>
		<path d="M7.523,5.762l-0.03-1.046L7.472,4.013V3.715V3.41c0-0.398,0.096-0.716,0.29-0.957c0.191-0.241,0.448-0.36,0.769-0.36
			c0.15,0,0.297,0.034,0.437,0.099c0.14,0.067,0.238,0.158,0.3,0.274c0.07,0.111,0.106,0.313,0.106,0.603v0.456V3.89l-0.031,0.7
			c0,0.075-0.005,0.261-0.013,0.559C9.319,5.446,9.314,5.65,9.314,5.762l0.479-0.023l0.463,0.023l-0.028-0.737L10.22,4.013V3.715
			v-0.39l0.008-0.419c0-0.417-0.127-0.748-0.383-0.993C9.591,1.666,9.257,1.544,8.846,1.544c-0.388,0-0.678,0.08-0.864,0.241
			c-0.189,0.16-0.308,0.275-0.36,0.347l-0.15,0.204l0.021-0.303l0.016-0.388C7.464,1.648,7.397,1.658,7.307,1.674H7.061l-0.21-0.008
			l-0.248-0.02v0.771L6.642,3.41v0.404l-0.039,0.84c0,0.101-0.005,0.285-0.018,0.543c-0.013,0.26-0.019,0.449-0.019,0.565
			l0.471-0.023L7.523,5.762z"/>
		<path d="M11.345,2.101v1.615l-0.023,1.133c0,0.32,0.096,0.564,0.282,0.734c0.187,0.171,0.443,0.256,0.769,0.256
			c0.104,0,0.191-0.005,0.272-0.016c0.078-0.01,0.15-0.023,0.217-0.039c0.142-0.037,0.297-0.099,0.471-0.191l-0.06-0.158
			l-0.031-0.184c-0.173,0.096-0.344,0.145-0.51,0.145c-0.311,0-0.481-0.101-0.515-0.3c-0.033-0.202-0.049-0.419-0.049-0.66V3.73V2.1
			h0.303l0.74,0.039L13.195,1.88l0.008-0.259c-0.347,0.036-0.644,0.052-0.893,0.052h-0.142V1.148l0.06-0.698l-0.267,0.142
			l-0.202,0.101l-0.207,0.083l-0.23,0.078v0.357l0.016,0.463h-0.285l-0.3-0.052v0.189l-0.015,0.313h0.424L11.345,2.101z"/>
		<path d="M17.213,5.343c-0.085,0.031-0.152,0.046-0.204,0.046c-0.207,0-0.324-0.067-0.35-0.197
			C16.633,5.06,16.62,4.863,16.62,4.605V3.28V2.672c0-0.354-0.117-0.631-0.344-0.823c-0.233-0.191-0.562-0.29-0.991-0.29
			c-0.279,0-0.53,0.042-0.758,0.122c-0.223,0.083-0.466,0.228-0.722,0.435l0.075,0.228l0.052,0.243h0.064
			c0.287-0.385,0.629-0.577,1.022-0.577c0.233,0,0.421,0.072,0.564,0.217c0.145,0.145,0.215,0.331,0.215,0.559
			c0,0.132-0.036,0.23-0.109,0.292c-0.075,0.065-0.225,0.125-0.448,0.179l-0.344,0.085c-0.38,0.101-0.647,0.188-0.794,0.261
			c-0.147,0.072-0.29,0.197-0.427,0.37c-0.14,0.174-0.207,0.404-0.207,0.691c0,0.352,0.111,0.634,0.331,0.849
			c0.22,0.217,0.51,0.326,0.872,0.326c0.481,0,0.875-0.181,1.18-0.541c0.111,0.359,0.341,0.541,0.693,0.541
			c0.065,0,0.122-0.005,0.173-0.016c0.052-0.013,0.109-0.026,0.168-0.039c0.106-0.039,0.223-0.093,0.35-0.168l-0.023-0.23
			L17.213,5.343L17.213,5.343z M15.798,4.401c0,0.202-0.028,0.367-0.088,0.494c-0.057,0.126-0.155,0.233-0.292,0.318
			c-0.137,0.088-0.282,0.129-0.435,0.129c-0.207,0-0.368-0.07-0.484-0.21c-0.114-0.137-0.171-0.336-0.171-0.595
			c0-0.158,0.034-0.306,0.101-0.44c0.064-0.132,0.145-0.23,0.243-0.292c0.096-0.06,0.233-0.111,0.411-0.152l0.424-0.129l0.29-0.114
			L15.798,4.401L15.798,4.401z"/>
		<path d="M19.754,5.461c0.305-0.269,0.463-0.605,0.463-1.001c0-0.43-0.191-0.758-0.572-0.983l-0.383-0.173l-0.388-0.14
			c-0.217-0.078-0.38-0.171-0.481-0.274c-0.098-0.101-0.147-0.228-0.147-0.377c0-0.161,0.063-0.297,0.189-0.412
			c0.127-0.114,0.277-0.173,0.448-0.173c0.186,0,0.359,0.06,0.512,0.171c0.155,0.114,0.271,0.269,0.347,0.46l0.005,0.018h0.106
			l0.155-0.551l0.085-0.22l-0.021-0.01c-0.23-0.101-0.417-0.168-0.562-0.202c-0.145-0.034-0.243-0.055-0.297-0.063
			c-0.057-0.008-0.16-0.013-0.315-0.013c-0.422,0-0.771,0.122-1.043,0.362c-0.269,0.238-0.406,0.548-0.406,0.921
			c0,0.197,0.049,0.383,0.147,0.554c0.099,0.168,0.223,0.3,0.37,0.394c0.145,0.088,0.342,0.181,0.587,0.271l0.266,0.098
			c0.404,0.153,0.608,0.37,0.608,0.647c0,0.184-0.072,0.336-0.215,0.453c-0.145,0.117-0.329,0.176-0.546,0.176
			c-0.153,0-0.311-0.039-0.466-0.111c-0.16-0.085-0.274-0.166-0.339-0.241c-0.067-0.078-0.122-0.171-0.16-0.277L17.69,4.738
			l-0.11,0.056l-0.049,0.274L17.448,5.41l-0.06,0.176l0.019,0.008c0.357,0.178,0.753,0.269,1.177,0.269
			C19.055,5.863,19.448,5.728,19.754,5.461z"/>
		<path d="M43.973,11.854c0.311,0,0.59,0.093,0.854,0.279l0.155-0.106V10.99V9.953h-0.3c-0.207,0-0.403,0.023-0.584,0.07
			c-0.187,0.046-0.383,0.119-0.59,0.212c-0.414,0.223-0.693,0.427-0.849,0.616l-0.367,0.562l-0.279,0.616V11.52v-0.583l0.067-0.859
			c-0.197,0.034-0.394,0.057-0.58,0.07c-0.187,0.01-0.352,0.018-0.492,0.018l-1.022-0.088l0.054,2.603l0.052,1.935l-0.052,2.957
			l-0.088,2.041l1.056-0.053l1.123,0.053l-0.067-2.069l-0.052-1.646l0.052-1.979c0.057-0.435,0.15-0.787,0.285-1.061
			c0.176-0.305,0.409-0.551,0.699-0.732C43.336,11.945,43.642,11.854,43.973,11.854z"/>
		<polygon points="6.61,18.644 6.646,18.31 5.529,18.435 4.341,18.504 3.169,18.504 2.3,18.504 2.3,17.203 2.248,12.82 2.3,11.115 
			2.3,8.985 2.44,6.962 1.544,7.014 1.263,7.014 0.699,7.014 0.083,6.962 0.155,9.216 0.225,10.781 0.225,12.892 0.155,15.003 
			0.155,17.729 0.049,19.614 1.596,19.542 3.374,19.542 6.646,19.614 6.592,19.313 6.592,18.979 		"/>
		<path d="M111.11,10.023c-0.18,0.046-0.377,0.119-0.59,0.212c-0.414,0.223-0.692,0.427-0.842,0.616l-0.373,0.562l-0.279,0.616
			V11.52v-0.583l0.066-0.859c-0.195,0.034-0.388,0.057-0.58,0.07c-0.186,0.01-0.352,0.018-0.49,0.018l-1.021-0.088l0.052,2.603
			l0.053,1.935l-0.053,2.957l-0.088,2.041l1.057-0.053l1.127,0.053l-0.071-2.069l-0.052-1.646l0.052-1.979
			c0.058-0.435,0.149-0.787,0.284-1.061c0.177-0.305,0.408-0.551,0.699-0.732c0.289-0.181,0.595-0.272,0.926-0.272
			c0.311,0,0.59,0.093,0.854,0.279l0.154-0.106V10.99V9.953H111.7C111.489,9.953,111.293,9.977,111.11,10.023z"/>
		<path d="M37.629,7.35l0.07-1.759l-0.525,0.052c-0.161,0.023-0.277,0.036-0.35,0.036h-0.189l-0.473-0.018l-0.626-0.07l0.052,1.899
			l0.088,1.371v1.146l-0.019,0.862c-0.445-0.365-0.872-0.616-1.278-0.758c-0.404-0.14-0.88-0.209-1.418-0.209
			c-1.317,0-2.385,0.476-3.203,1.433c-0.818,0.955-1.227,2.179-1.227,3.669c0,1.407,0.385,2.556,1.154,3.449
			c0.769,0.89,1.739,1.337,2.911,1.337c0.504,0,1.012-0.114,1.521-0.336c0.512-0.223,0.835-0.436,0.978-0.631l0.334-0.494
			l0.246-0.422v0.297c0,0.119-0.003,0.271-0.008,0.458c-0.005,0.188-0.034,0.504-0.081,0.952l1.092-0.055l1.001,0.055l-0.104-4.067
			l-0.054-3.783l0.054-2.251L37.629,7.35z M34.972,17.554c-0.468,0.737-1.084,1.107-1.847,1.107c-0.75,0-1.34-0.34-1.767-1.02
			c-0.43-0.681-0.642-1.582-0.642-2.709c0-1.291,0.233-2.303,0.704-3.035c0.468-0.734,1.094-1.1,1.881-1.1
			c0.763,0,1.351,0.324,1.759,0.976c0.412,0.652,0.616,1.568,0.616,2.752C35.676,15.806,35.442,16.813,34.972,17.554z"/>
		<path d="M11.485,9.865c-1.467,0-2.657,0.463-3.573,1.387c-0.914,0.926-1.372,2.104-1.372,3.531c0,1.462,0.458,2.646,1.372,3.547
			c0.916,0.899,2.105,1.353,3.573,1.353c1.467,0,2.66-0.455,3.581-1.361c0.921-0.91,1.379-2.088,1.379-3.539
			s-0.455-2.634-1.371-3.549C14.16,10.323,12.962,9.865,11.485,9.865z M13.596,17.883c-0.494,0.683-1.198,1.027-2.111,1.027
			c-0.926,0-1.63-0.351-2.111-1.046c-0.481-0.698-0.722-1.707-0.722-3.029c0-1.322,0.251-2.333,0.755-3.037
			c0.504-0.701,1.198-1.053,2.078-1.053c1.899,0,2.849,1.4,2.849,4.197C14.333,16.217,14.087,17.194,13.596,17.883z"/>
		<path d="M24.716,15.285l-0.07,1.616c0,0.177-0.013,0.609-0.036,1.293c-0.023,0.687-0.036,1.16-0.036,1.418l1.107-0.053
			l1.074,0.053l-0.07-1.707l-0.015-2.342v-0.686v-0.9l0.015-0.97c0-0.965-0.292-1.729-0.882-2.295
			c-0.587-0.567-1.358-0.849-2.311-0.849c-0.895,0-1.563,0.186-1.997,0.554c-0.438,0.37-0.712,0.636-0.828,0.802l-0.35,0.474
			l0.052-0.704l0.034-0.895c-0.101,0.01-0.256,0.034-0.466,0.07h-0.572l-0.484-0.018l-0.572-0.052v1.783l0.088,2.295v0.938
			l-0.088,1.943c0,0.235-0.013,0.654-0.044,1.254c-0.029,0.604-0.044,1.035-0.044,1.307l1.092-0.053l1.125,0.053l-0.07-2.418
			l-0.052-1.631V14.88v-0.706c0-0.921,0.223-1.656,0.668-2.212c0.445-0.554,1.037-0.828,1.777-0.828
			c0.352,0,0.688,0.075,1.012,0.228c0.323,0.153,0.554,0.365,0.693,0.634c0.166,0.259,0.248,0.722,0.248,1.39v1.056v0.843H24.716z"
			/>
		<path d="M60.49,18.874c0.699-0.611,1.05-1.366,1.05-2.27c0-0.976-0.429-1.713-1.283-2.217l-0.879-0.406l-0.9-0.316
			c-0.518-0.188-0.896-0.406-1.133-0.652c-0.243-0.246-0.362-0.551-0.362-0.913c0-0.388,0.155-0.719,0.46-0.994
			c0.3-0.277,0.663-0.414,1.071-0.414c0.445,0,0.854,0.135,1.221,0.404c0.373,0.269,0.642,0.634,0.817,1.092h0.161l0.249-0.864
			l0.104-0.367l0.176-0.458c-0.528-0.235-0.958-0.391-1.283-0.466C59.627,9.956,59.4,9.91,59.271,9.892
			c-0.129-0.016-0.367-0.026-0.719-0.026c-0.962,0-1.749,0.274-2.365,0.817c-0.621,0.546-0.926,1.242-0.926,2.085
			c0,0.445,0.114,0.861,0.336,1.25c0.222,0.389,0.497,0.683,0.833,0.887c0.336,0.207,0.781,0.414,1.346,0.627l0.615,0.229
			c0.963,0.364,1.444,0.879,1.444,1.547c0,0.446-0.17,0.812-0.517,1.092c-0.347,0.281-0.776,0.424-1.294,0.424
			c-0.367,0-0.735-0.088-1.107-0.268c-0.377-0.199-0.646-0.388-0.802-0.572c-0.161-0.18-0.285-0.4-0.378-0.659l-0.176,0.088
			l-0.111,0.608l-0.067,0.285l-0.125,0.518l-0.124,0.349c0.823,0.412,1.718,0.618,2.691,0.618
			C58.906,19.79,59.796,19.483,60.49,18.874z"/>
		<path d="M78.306,18.874c0-0.436,0.021-0.734,0.053-0.898l0.211-0.879l-0.123-0.07c-0.643,0.645-1.258,1.109-1.848,1.396
			c-0.584,0.29-1.228,0.432-1.914,0.432c-1.397,0-2.511-0.488-3.344-1.469c-0.833-0.978-1.252-2.3-1.252-3.966
			c0-1.772,0.393-3.164,1.18-4.178c0.787-1.014,1.879-1.524,3.271-1.524c1.505,0,2.711,0.652,3.627,1.953l0.176-0.07l0.104-0.843
			l0.109-0.476l0.104-0.404c-0.549-0.365-1.176-0.639-1.873-0.828c-0.698-0.187-1.428-0.282-2.188-0.282
			c-2.02,0-3.644,0.605-4.875,1.814c-1.231,1.208-1.847,2.778-1.847,4.714c0,1.936,0.621,3.5,1.862,4.698
			c1.242,1.194,2.852,1.795,4.824,1.795c1.138,0,1.949-0.106,2.446-0.317l0.88-0.389L78.306,18.874z"/>
		<path d="M89.498,14.783c0-1.451-0.461-2.634-1.377-3.549c-0.91-0.911-2.11-1.369-3.586-1.369c-1.47,0-2.659,0.463-3.57,1.387
			c-0.916,0.926-1.376,2.104-1.376,3.531c0,1.462,0.46,2.646,1.376,3.547c0.911,0.899,2.103,1.353,3.57,1.353
			c1.465,0,2.659-0.455,3.581-1.361C89.037,17.412,89.498,16.235,89.498,14.783z M86.646,17.883c-0.49,0.683-1.194,1.027-2.11,1.027
			c-0.927,0-1.63-0.351-2.11-1.046c-0.48-0.698-0.725-1.707-0.725-3.029c0-1.322,0.253-2.333,0.761-3.037
			c0.502-0.701,1.194-1.053,2.074-1.053c1.899,0,2.853,1.4,2.853,4.197C87.388,16.217,87.14,17.194,86.646,17.883z"/>
		<path d="M100.192,9.865c-1.463,0-2.653,0.463-3.569,1.387c-0.916,0.926-1.376,2.104-1.376,3.531c0,1.462,0.46,2.646,1.376,3.547
			c0.916,0.899,2.106,1.353,3.569,1.353c1.466,0,2.66-0.455,3.582-1.361c0.92-0.91,1.381-2.088,1.381-3.539s-0.461-2.634-1.37-3.549
			C102.869,10.323,101.668,9.865,100.192,9.865z M102.306,17.883c-0.492,0.683-1.195,1.027-2.111,1.027
			c-0.926,0-1.631-0.351-2.111-1.046c-0.48-0.698-0.719-1.707-0.719-3.029c0-1.322,0.248-2.333,0.756-3.037
			c0.502-0.701,1.195-1.053,2.074-1.053c1.898,0,2.852,1.4,2.852,4.197C103.045,16.217,102.797,17.194,102.306,17.883z"/>
		<path d="M93.384,17.448l-0.052-1.918l-0.052-3.026l0.052-2.481l0.052-2.357l0.088-2.06c-0.222,0.036-0.424,0.06-0.6,0.072
			c-0.178,0.011-0.337,0.016-0.492,0.016l-1.122-0.088l0.089,2.129l0.088,1.883v2.851l-0.088,2.25v2.834l-0.089,2.059l1.087-0.053
			l1.111,0.053L93.384,17.448z"/>
		<path d="M51.854,19.583c0.476-0.135,0.962-0.368,1.47-0.699c0.057-0.238,0.129-0.496,0.223-0.779
			c0.083-0.285,0.145-0.483,0.181-0.604l-0.14-0.106l-0.725,0.627c-0.129,0.092-0.424,0.242-0.885,0.444
			c-0.455,0.202-0.978,0.304-1.567,0.304c-0.88,0-1.604-0.326-2.168-0.976c-0.569-0.651-0.849-1.487-0.849-2.507v-0.282l3.053-0.054
			l1.764,0.054h1.641l0.052-0.474l0.021-0.297c0-1.325-0.368-2.378-1.102-3.175c-0.735-0.794-1.723-1.192-2.965-1.192
			c-1.361,0-2.463,0.463-3.307,1.389c-0.844,0.926-1.268,2.124-1.268,3.592c0,1.533,0.439,2.741,1.319,3.621
			c0.879,0.879,2.075,1.322,3.591,1.322C50.824,19.79,51.377,19.72,51.854,19.583z M48.071,11.635
			c0.45-0.605,1.029-0.908,1.733-0.908c0.657,0,1.174,0.292,1.547,0.869c0.378,0.577,0.564,1.376,0.564,2.404l-1.092,0.036h-1.739
			l-1.692-0.018C47.393,13.032,47.621,12.237,48.071,11.635z"/>
		<path d="M37.21,23.599l-0.264-0.123l-0.269-0.093c-0.152-0.057-0.267-0.122-0.339-0.196c-0.072-0.072-0.106-0.166-0.106-0.271
			c0-0.116,0.044-0.217,0.134-0.297c0.093-0.083,0.199-0.125,0.321-0.125c0.135,0,0.256,0.039,0.368,0.121
			c0.111,0.08,0.191,0.189,0.243,0.326h0.049l0.073-0.258l0.031-0.111l0.055-0.137c-0.158-0.07-0.287-0.117-0.386-0.138
			c-0.098-0.022-0.166-0.039-0.204-0.044c-0.039-0.005-0.111-0.008-0.218-0.008c-0.287,0-0.522,0.083-0.706,0.246
			c-0.184,0.162-0.277,0.369-0.277,0.623c0,0.133,0.034,0.257,0.101,0.373c0.064,0.117,0.15,0.205,0.248,0.268
			c0.101,0.063,0.235,0.124,0.404,0.186l0.184,0.07c0.287,0.108,0.432,0.262,0.432,0.463c0,0.133-0.052,0.241-0.155,0.326
			c-0.104,0.083-0.233,0.126-0.388,0.126c-0.108,0-0.217-0.026-0.331-0.079c-0.111-0.061-0.191-0.117-0.238-0.172
			c-0.049-0.054-0.085-0.121-0.114-0.197l-0.052,0.026l-0.033,0.181l-0.023,0.086l-0.036,0.154l-0.036,0.104
			c0.246,0.125,0.515,0.185,0.805,0.185c0.323,0,0.59-0.09,0.797-0.271c0.209-0.185,0.313-0.409,0.313-0.68
			C37.593,23.972,37.466,23.748,37.21,23.599z"/>
		<path d="M42.213,21.492l0.021-0.525l-0.155,0.017c-0.047,0.008-0.083,0.01-0.104,0.01h-0.057l-0.14-0.006l-0.191-0.021
			l0.016,0.567l0.026,0.41v0.342l-0.005,0.259c-0.129-0.108-0.259-0.185-0.383-0.226c-0.119-0.043-0.261-0.064-0.422-0.064
			c-0.393,0-0.714,0.143-0.959,0.43c-0.244,0.285-0.365,0.651-0.365,1.096c0,0.423,0.114,0.767,0.344,1.033s0.52,0.397,0.872,0.397
			c0.15,0,0.303-0.03,0.453-0.099c0.155-0.066,0.253-0.129,0.295-0.188l0.098-0.147l0.073-0.125v0.09c0,0.033,0,0.08,0,0.134
			c0,0.058-0.011,0.153-0.026,0.285l0.326-0.015l0.3,0.015l-0.031-1.216l-0.016-1.131l0.016-0.676L42.213,21.492z M41.422,24.545
			c-0.14,0.224-0.326,0.331-0.554,0.331c-0.225,0-0.401-0.102-0.53-0.305c-0.127-0.202-0.191-0.473-0.191-0.811
			c0-0.386,0.07-0.688,0.209-0.908c0.142-0.22,0.329-0.328,0.564-0.328c0.228,0,0.403,0.096,0.528,0.291
			c0.124,0.195,0.181,0.469,0.181,0.824C41.629,24.022,41.562,24.325,41.422,24.545z"/>
		<path d="M32.374,22.292c-0.054,0.016-0.114,0.036-0.176,0.064c-0.122,0.067-0.207,0.127-0.251,0.185l-0.111,0.168l-0.085,0.185
			v-0.152v-0.174l0.021-0.258c-0.06,0.012-0.117,0.018-0.173,0.022c-0.057,0.002-0.106,0.005-0.147,0.005l-0.305-0.027l0.015,0.78
			l0.016,0.577l-0.016,0.885l-0.026,0.61l0.316-0.015l0.336,0.015l-0.021-0.618l-0.015-0.492l0.015-0.592
			c0.018-0.129,0.046-0.234,0.085-0.318c0.052-0.09,0.124-0.162,0.209-0.217c0.085-0.057,0.179-0.083,0.277-0.083
			c0.093,0,0.176,0.029,0.256,0.085l0.046-0.033v-0.311v-0.311h-0.09C32.488,22.271,32.429,22.278,32.374,22.292z"/>
		<path d="M22.669,23.599l-0.261-0.123l-0.269-0.093c-0.155-0.057-0.267-0.122-0.339-0.196c-0.073-0.072-0.109-0.166-0.109-0.271
			c0-0.116,0.047-0.217,0.137-0.297c0.09-0.083,0.199-0.125,0.321-0.125c0.135,0,0.256,0.039,0.365,0.121
			c0.111,0.08,0.194,0.189,0.246,0.326h0.049l0.073-0.258l0.031-0.111l0.052-0.137c-0.155-0.07-0.285-0.117-0.383-0.138
			c-0.098-0.022-0.166-0.039-0.205-0.044s-0.111-0.008-0.217-0.008c-0.287,0-0.522,0.083-0.706,0.246
			c-0.187,0.162-0.277,0.369-0.277,0.623c0,0.133,0.033,0.257,0.101,0.373c0.065,0.117,0.147,0.205,0.249,0.268
			s0.235,0.124,0.404,0.186l0.184,0.07c0.287,0.108,0.432,0.262,0.432,0.463c0,0.133-0.052,0.241-0.155,0.326
			c-0.104,0.083-0.233,0.126-0.388,0.126c-0.108,0-0.22-0.026-0.331-0.079c-0.111-0.061-0.191-0.117-0.241-0.172
			c-0.046-0.054-0.085-0.121-0.111-0.197l-0.054,0.026l-0.031,0.181l-0.021,0.086l-0.036,0.154l-0.039,0.104
			c0.246,0.125,0.515,0.185,0.808,0.185c0.323,0,0.587-0.09,0.797-0.271c0.209-0.185,0.313-0.409,0.313-0.68
			C23.055,23.972,22.928,23.748,22.669,23.599z"/>
		<path d="M20.628,24.069l-0.308-0.842l-0.306-0.877l-0.243-0.769l-0.062-0.209c-0.026,0.002-0.064,0.01-0.116,0.019h-0.137
			l-0.127-0.006l-0.137-0.013l-0.083,0.198c-0.15,0.375-0.378,0.914-0.691,1.615c-0.339,0.758-0.574,1.275-0.711,1.547l-0.096,0.197
			l-0.119,0.229l0.23-0.015l0.243,0.015l0.114-0.333l0.106-0.277l0.106-0.27l0.199-0.449h0.742h0.637l0.253,0.764l0.168,0.565
			l0.401-0.015l0.398,0.015l-0.23-0.505L20.628,24.069z M19.223,23.519l-0.212-0.011h-0.158h-0.226l0.621-1.446l0.522,1.446
			L19.223,23.519z"/>
		<path d="M26.439,22.499c0.38,0,0.611,0.209,0.691,0.631l0.057-0.01l0.042-0.158l0.049-0.122l0.052-0.132l0.07-0.143
			c-0.158-0.121-0.305-0.205-0.437-0.246c-0.135-0.043-0.306-0.064-0.513-0.064c-0.442,0-0.799,0.137-1.076,0.414
			c-0.274,0.273-0.411,0.628-0.411,1.061c0,0.436,0.14,0.789,0.417,1.066c0.279,0.273,0.639,0.412,1.076,0.412
			c0.3,0,0.569-0.075,0.813-0.225l0.031-0.18l0.057-0.195L27.3,24.577c-0.217,0.22-0.453,0.326-0.706,0.326
			c-0.29,0-0.528-0.114-0.711-0.342c-0.187-0.229-0.277-0.522-0.277-0.886c0-0.342,0.078-0.626,0.235-0.846
			C25.997,22.61,26.198,22.499,26.439,22.499z"/>
		<path d="M29.109,22.245c-0.44,0-0.794,0.137-1.069,0.417c-0.274,0.276-0.412,0.626-0.412,1.056c0,0.438,0.138,0.793,0.412,1.061
			c0.274,0.27,0.629,0.404,1.069,0.404c0.437,0,0.794-0.135,1.071-0.406c0.274-0.271,0.414-0.623,0.414-1.057
			c0-0.436-0.137-0.789-0.412-1.064C29.909,22.382,29.552,22.245,29.109,22.245z M29.74,24.644
			c-0.147,0.205-0.357,0.309-0.631,0.309c-0.277,0-0.489-0.104-0.632-0.313c-0.145-0.207-0.217-0.511-0.217-0.906
			c0-0.396,0.075-0.698,0.228-0.912c0.15-0.207,0.357-0.313,0.621-0.313c0.569,0,0.851,0.42,0.851,1.256
			C29.96,24.144,29.888,24.438,29.74,24.644z"/>
		<path d="M34.097,22.245c-0.406,0-0.735,0.137-0.988,0.417c-0.253,0.276-0.38,0.634-0.38,1.073c0,0.461,0.132,0.82,0.396,1.084
			c0.264,0.265,0.621,0.394,1.074,0.394c0.189,0,0.354-0.019,0.497-0.06c0.143-0.041,0.29-0.11,0.44-0.209
			c0.018-0.07,0.042-0.147,0.067-0.233c0.026-0.085,0.044-0.146,0.054-0.181l-0.042-0.031l-0.217,0.186
			c-0.039,0.029-0.126,0.073-0.264,0.135c-0.137,0.061-0.295,0.091-0.468,0.091c-0.264,0-0.481-0.099-0.649-0.292
			c-0.171-0.197-0.254-0.445-0.254-0.75v-0.085l0.914-0.017l0.528,0.017h0.489l0.016-0.14l0.005-0.09
			c0-0.396-0.109-0.713-0.329-0.951C34.768,22.364,34.47,22.245,34.097,22.245z M34.387,23.492h-0.52l-0.505-0.005
			c0-0.295,0.067-0.533,0.202-0.711c0.134-0.182,0.308-0.271,0.518-0.271c0.199,0,0.352,0.085,0.465,0.26
			c0.111,0.172,0.168,0.414,0.168,0.719L34.387,23.492z"/>
		<path d="M45.359,24.871c-0.062,0.021-0.108,0.03-0.145,0.03c-0.145,0-0.223-0.043-0.243-0.135
			c-0.016-0.093-0.026-0.228-0.026-0.406v-0.916v-0.42c0-0.246-0.078-0.436-0.238-0.569c-0.16-0.132-0.388-0.199-0.683-0.199
			c-0.196,0-0.367,0.028-0.522,0.085c-0.155,0.055-0.326,0.155-0.502,0.301l0.052,0.157l0.036,0.168h0.047
			c0.196-0.267,0.435-0.401,0.704-0.401c0.16,0,0.295,0.053,0.393,0.15c0.099,0.102,0.145,0.23,0.145,0.389
			c0,0.09-0.021,0.158-0.073,0.201c-0.052,0.045-0.155,0.086-0.31,0.125l-0.238,0.057c-0.264,0.07-0.445,0.133-0.548,0.185
			c-0.104,0.05-0.202,0.136-0.295,0.254c-0.099,0.119-0.145,0.279-0.145,0.479c0,0.242,0.078,0.437,0.228,0.587
			c0.155,0.149,0.357,0.222,0.605,0.222c0.332,0,0.605-0.124,0.818-0.373c0.072,0.249,0.232,0.373,0.476,0.373
			c0.046,0,0.088-0.002,0.124-0.007c0.031-0.011,0.072-0.019,0.114-0.028c0.072-0.027,0.155-0.064,0.243-0.115l-0.016-0.16
			L45.359,24.871L45.359,24.871z M44.376,24.22c0,0.139-0.021,0.252-0.057,0.34c-0.041,0.088-0.108,0.164-0.202,0.224
			c-0.098,0.06-0.197,0.088-0.3,0.088c-0.145,0-0.259-0.047-0.336-0.146c-0.078-0.096-0.119-0.232-0.119-0.41
			c0-0.109,0.026-0.209,0.067-0.303c0.046-0.094,0.104-0.162,0.17-0.205c0.067-0.043,0.161-0.076,0.285-0.104l0.295-0.091
			l0.197-0.08V24.22z"/>
		<path d="M79.937,22.915l0.041-0.607c-0.037,0.004-0.082,0.012-0.146,0.022h-0.177l-0.33-0.022l0.016,0.565l0.016,0.651v0.164
			v0.306c0,0.269-0.063,0.476-0.182,0.62c-0.119,0.148-0.29,0.221-0.513,0.221c-0.207,0-0.356-0.047-0.444-0.145
			c-0.094-0.096-0.135-0.26-0.135-0.486v-0.475v-0.201l0.031-0.598l0.016-0.625c-0.066,0.014-0.13,0.019-0.188,0.023
			c-0.057,0.002-0.107,0.005-0.149,0.005l-0.315-0.028l0.017,0.564l0.016,0.654v0.164v0.256v0.427c0,0.243,0.089,0.442,0.265,0.603
			c0.17,0.16,0.388,0.238,0.646,0.238c0.383,0,0.703-0.17,0.951-0.52v0.232l-0.03,0.235c0.036-0.002,0.082-0.011,0.146-0.021h0.181
			l0.312,0.021l-0.041-0.759c0-0.066-0.006-0.176-0.006-0.325c-0.006-0.15-0.006-0.251-0.006-0.304l0.012-0.379v-0.479H79.937z"/>
		<path d="M83.087,24.871c-0.057,0.021-0.104,0.03-0.141,0.03c-0.146,0-0.227-0.043-0.242-0.135
			c-0.016-0.093-0.025-0.228-0.025-0.406v-0.916v-0.42c0-0.246-0.082-0.436-0.238-0.569c-0.16-0.132-0.389-0.199-0.688-0.199
			c-0.19,0-0.362,0.028-0.522,0.085c-0.154,0.055-0.32,0.155-0.496,0.301l0.052,0.157l0.036,0.168h0.041
			c0.201-0.267,0.436-0.401,0.709-0.401c0.16,0,0.295,0.053,0.389,0.15c0.098,0.102,0.148,0.23,0.148,0.389
			c0,0.09-0.024,0.158-0.076,0.201c-0.047,0.045-0.155,0.086-0.307,0.125l-0.236,0.057c-0.266,0.07-0.45,0.133-0.549,0.185
			c-0.104,0.05-0.203,0.136-0.301,0.254c-0.094,0.119-0.14,0.279-0.14,0.479c0,0.242,0.077,0.437,0.228,0.587
			c0.155,0.149,0.353,0.222,0.601,0.222c0.337,0,0.604-0.124,0.817-0.373c0.078,0.249,0.237,0.373,0.48,0.373
			c0.042,0,0.083-0.002,0.119-0.007c0.035-0.011,0.072-0.019,0.113-0.028c0.078-0.027,0.156-0.064,0.244-0.115l-0.017-0.16
			L83.087,24.871L83.087,24.871z M82.108,24.22c0,0.139-0.021,0.252-0.063,0.34c-0.042,0.088-0.109,0.164-0.201,0.224
			c-0.094,0.06-0.191,0.088-0.301,0.088c-0.145,0-0.254-0.047-0.331-0.146c-0.083-0.096-0.118-0.232-0.118-0.41
			c0-0.109,0.021-0.209,0.066-0.303s0.104-0.162,0.165-0.205c0.067-0.043,0.166-0.076,0.284-0.104l0.295-0.091l0.201-0.08v0.688
			H82.108z"/>
		<path d="M76.599,23.599l-0.265-0.123l-0.271-0.093c-0.153-0.057-0.264-0.122-0.336-0.196c-0.072-0.072-0.107-0.166-0.107-0.271
			c0-0.116,0.046-0.217,0.135-0.297c0.094-0.083,0.201-0.125,0.32-0.125c0.135,0,0.259,0.039,0.367,0.121
			c0.108,0.08,0.19,0.189,0.242,0.326h0.047l0.078-0.258l0.03-0.111l0.052-0.137c-0.16-0.07-0.283-0.117-0.383-0.138
			c-0.098-0.022-0.164-0.039-0.207-0.044c-0.035-0.005-0.107-0.008-0.217-0.008c-0.285,0-0.521,0.083-0.704,0.246
			c-0.187,0.162-0.278,0.369-0.278,0.623c0,0.133,0.035,0.257,0.099,0.373c0.065,0.117,0.149,0.205,0.253,0.268
			c0.1,0.063,0.232,0.124,0.404,0.186l0.181,0.07c0.29,0.108,0.435,0.262,0.435,0.463c0,0.133-0.052,0.241-0.154,0.326
			c-0.104,0.083-0.232,0.126-0.389,0.126c-0.107,0-0.223-0.026-0.33-0.079c-0.115-0.061-0.191-0.117-0.244-0.172
			c-0.047-0.054-0.082-0.121-0.108-0.197l-0.052,0.026l-0.036,0.181l-0.021,0.086l-0.037,0.154l-0.035,0.104
			c0.248,0.125,0.512,0.185,0.807,0.185c0.32,0,0.585-0.09,0.797-0.271c0.207-0.185,0.311-0.409,0.311-0.68
			C76.979,23.972,76.853,23.748,76.599,23.599z"/>
		<path d="M67.066,22.245c-0.408,0-0.74,0.137-0.988,0.417c-0.254,0.276-0.383,0.634-0.383,1.073c0,0.461,0.135,0.82,0.398,1.084
			c0.259,0.265,0.621,0.394,1.071,0.394c0.191,0,0.356-0.019,0.497-0.06c0.145-0.041,0.289-0.11,0.439-0.209
			c0.021-0.07,0.041-0.147,0.067-0.233c0.025-0.085,0.041-0.146,0.057-0.181l-0.047-0.031l-0.217,0.186
			c-0.036,0.029-0.124,0.073-0.259,0.135c-0.14,0.061-0.295,0.091-0.471,0.091c-0.264,0-0.481-0.099-0.652-0.292
			c-0.166-0.197-0.254-0.445-0.254-0.75v-0.085l0.916-0.017l0.528,0.017h0.491l0.016-0.14l0.005-0.09
			c0-0.396-0.108-0.713-0.331-0.951C67.734,22.364,67.439,22.245,67.066,22.245z M67.356,23.492h-0.522l-0.508-0.005
			c0-0.295,0.073-0.533,0.207-0.711c0.135-0.182,0.306-0.271,0.518-0.271c0.197,0,0.353,0.085,0.461,0.26
			c0.113,0.172,0.171,0.414,0.171,0.719L67.356,23.492z"/>
		<path d="M48.438,22.292c-0.052,0.016-0.114,0.036-0.176,0.064c-0.125,0.067-0.207,0.127-0.254,0.185L47.9,22.708l-0.083,0.184
			v-0.152v-0.172l0.021-0.26c-0.062,0.014-0.119,0.019-0.176,0.023c-0.057,0.002-0.104,0.005-0.145,0.005l-0.306-0.028l0.016,0.781
			l0.016,0.577l-0.016,0.885l-0.026,0.61l0.316-0.016l0.336,0.016l-0.021-0.618l-0.016-0.492l0.016-0.592
			c0.016-0.129,0.046-0.235,0.083-0.317c0.052-0.091,0.124-0.164,0.207-0.218c0.088-0.057,0.181-0.083,0.279-0.083
			c0.093,0,0.176,0.029,0.259,0.085l0.046-0.034v-0.31v-0.312h-0.093C48.552,22.271,48.495,22.278,48.438,22.292z"/>
		<path d="M91.724,23.599l-0.265-0.123l-0.269-0.093c-0.155-0.057-0.271-0.122-0.342-0.196c-0.072-0.072-0.108-0.166-0.108-0.271
			c0-0.116,0.046-0.217,0.14-0.297c0.088-0.083,0.196-0.125,0.32-0.125c0.135,0,0.254,0.039,0.367,0.121
			c0.108,0.08,0.19,0.189,0.242,0.326h0.047l0.072-0.258l0.031-0.111l0.057-0.137c-0.16-0.07-0.289-0.117-0.388-0.138
			c-0.099-0.022-0.166-0.039-0.202-0.044c-0.041-0.005-0.113-0.008-0.217-0.008c-0.29,0-0.521,0.083-0.709,0.246
			c-0.188,0.162-0.273,0.369-0.273,0.623c0,0.133,0.03,0.257,0.099,0.373c0.067,0.117,0.149,0.205,0.247,0.268
			c0.104,0.063,0.238,0.124,0.404,0.186l0.187,0.07c0.284,0.108,0.43,0.262,0.43,0.463c0,0.133-0.052,0.241-0.155,0.326
			c-0.104,0.083-0.232,0.126-0.388,0.126c-0.108,0-0.218-0.026-0.332-0.079c-0.112-0.061-0.19-0.117-0.237-0.172
			c-0.047-0.054-0.082-0.121-0.113-0.197l-0.053,0.026l-0.03,0.181l-0.021,0.086l-0.037,0.154l-0.035,0.104
			c0.242,0.125,0.512,0.185,0.802,0.185c0.325,0,0.59-0.09,0.797-0.271c0.212-0.185,0.315-0.409,0.315-0.68
			C92.104,23.972,91.978,23.748,91.724,23.599z"/>
		<path d="M86.278,22.499c0.379,0,0.605,0.209,0.688,0.631l0.058-0.01l0.041-0.158l0.047-0.122l0.058-0.132l0.065-0.143
			c-0.159-0.121-0.305-0.205-0.438-0.246c-0.129-0.043-0.3-0.064-0.507-0.064c-0.445,0-0.803,0.137-1.076,0.414
			c-0.279,0.273-0.414,0.628-0.414,1.061c0,0.436,0.141,0.789,0.42,1.066c0.278,0.273,0.637,0.412,1.075,0.412
			c0.295,0,0.569-0.075,0.813-0.225l0.031-0.18l0.057-0.195l-0.057-0.031c-0.224,0.22-0.457,0.326-0.709,0.326
			c-0.291,0-0.529-0.114-0.715-0.342c-0.182-0.229-0.273-0.522-0.273-0.886c0-0.342,0.076-0.626,0.238-0.846
			C85.834,22.61,86.036,22.499,86.278,22.499z"/>
		<path d="M90.047,24.871c-0.058,0.021-0.108,0.03-0.142,0.03c-0.145,0-0.227-0.043-0.241-0.135
			c-0.021-0.093-0.026-0.228-0.026-0.406v-0.916v-0.42c0-0.246-0.082-0.436-0.238-0.569c-0.159-0.132-0.387-0.199-0.688-0.199
			c-0.191,0-0.367,0.028-0.521,0.085c-0.155,0.055-0.32,0.155-0.502,0.301l0.052,0.157l0.042,0.168h0.041
			c0.201-0.267,0.435-0.401,0.709-0.401c0.16,0,0.289,0.053,0.388,0.15c0.099,0.102,0.149,0.23,0.149,0.389
			c0,0.09-0.024,0.158-0.076,0.201c-0.053,0.045-0.155,0.086-0.311,0.125l-0.233,0.057c-0.269,0.07-0.45,0.133-0.554,0.185
			c-0.104,0.05-0.196,0.136-0.295,0.254c-0.094,0.119-0.141,0.279-0.141,0.479c0,0.242,0.072,0.437,0.229,0.587
			c0.149,0.149,0.353,0.222,0.601,0.222c0.336,0,0.604-0.124,0.817-0.373c0.078,0.249,0.238,0.373,0.477,0.373
			c0.046,0,0.088-0.002,0.124-0.007c0.036-0.011,0.071-0.019,0.112-0.028c0.074-0.027,0.156-0.064,0.244-0.115l-0.016-0.16
			L90.047,24.871L90.047,24.871z M89.067,24.22c0,0.139-0.021,0.252-0.063,0.34c-0.041,0.088-0.107,0.164-0.201,0.224
			s-0.197,0.088-0.3,0.088c-0.146,0-0.254-0.047-0.331-0.146c-0.083-0.096-0.125-0.232-0.125-0.41c0-0.109,0.026-0.209,0.072-0.303
			c0.047-0.094,0.104-0.162,0.166-0.205c0.066-0.043,0.166-0.076,0.285-0.104l0.295-0.091l0.201-0.08V24.22L89.067,24.22z"/>
		<path d="M73.007,24.253c0-0.152-0.005-0.254-0.005-0.303l0.011-0.311v-0.252v-0.049c0-0.173-0.017-0.318-0.041-0.436
			c-0.031-0.116-0.109-0.256-0.229-0.416c-0.119-0.163-0.354-0.243-0.704-0.243c-0.367,0-0.667,0.149-0.886,0.446
			c-0.19-0.297-0.465-0.446-0.821-0.446c-0.265,0-0.461,0.052-0.585,0.151c-0.047,0.037-0.088,0.07-0.124,0.102
			c-0.052,0.044-0.083,0.074-0.094,0.088l-0.082,0.102l0.016-0.373c-0.114,0.013-0.213,0.021-0.301,0.021l-0.166-0.005l-0.176-0.023
			l0.026,0.66l0.031,0.559v0.185l-0.016,0.377l-0.016,0.47l-0.026,0.604c0.037-0.002,0.088-0.011,0.155-0.021h0.187l0.155,0.004
			l0.187,0.016l-0.026-0.564c0-0.098-0.005-0.222-0.015-0.365c-0.011-0.145-0.016-0.24-0.016-0.287v-0.237v-0.021V23.34
			c0-0.315,0.082-0.517,0.253-0.603c0.171-0.088,0.315-0.129,0.43-0.129c0.104,0,0.19,0.021,0.274,0.063
			c0.082,0.044,0.145,0.104,0.186,0.177c0.042,0.074,0.059,0.219,0.059,0.435v0.375v0.278l-0.037,0.492
			c0,0.111-0.006,0.243-0.016,0.401c-0.011,0.161-0.016,0.271-0.016,0.323l0.201-0.016h0.135l0.161,0.006l0.19,0.015l-0.041-0.556
			v-0.367v-0.299v-0.273v-0.047v-0.383c0-0.182,0.063-0.334,0.176-0.45c0.119-0.119,0.27-0.177,0.449-0.177
			c0.063,0,0.125,0.008,0.178,0.026c0.052,0.017,0.093,0.031,0.113,0.042c0.099,0.049,0.166,0.114,0.211,0.194
			c0.043,0.083,0.063,0.196,0.063,0.347v0.367v0.359l-0.036,0.486c0,0.065-0.005,0.182-0.011,0.352
			c-0.011,0.172-0.017,0.296-0.017,0.373l0.207-0.016H72.7h0.088l0.094,0.006c0.016,0,0.031,0.002,0.057,0.01h0.053h0.057
			l-0.035-0.59C73.013,24.509,73.013,24.405,73.007,24.253z"/>
		<path d="M54.363,24.871c-0.057,0.021-0.104,0.03-0.14,0.03c-0.145,0-0.228-0.043-0.243-0.135
			c-0.021-0.093-0.026-0.228-0.026-0.406v-0.916v-0.42c0-0.246-0.083-0.436-0.238-0.569c-0.161-0.132-0.388-0.199-0.688-0.199
			c-0.191,0-0.368,0.028-0.523,0.085c-0.155,0.055-0.321,0.155-0.501,0.301l0.057,0.157l0.036,0.168h0.042
			c0.202-0.267,0.435-0.401,0.709-0.401c0.16,0,0.29,0.053,0.388,0.15c0.098,0.102,0.15,0.23,0.15,0.389
			c0,0.09-0.026,0.158-0.078,0.201c-0.052,0.045-0.155,0.086-0.305,0.125l-0.238,0.057c-0.264,0.07-0.45,0.133-0.554,0.185
			c-0.098,0.05-0.197,0.136-0.295,0.254c-0.093,0.119-0.14,0.279-0.14,0.479c0,0.242,0.073,0.437,0.228,0.587
			c0.15,0.149,0.352,0.222,0.6,0.222c0.336,0,0.605-0.124,0.817-0.373c0.078,0.249,0.238,0.373,0.481,0.373
			c0.042,0,0.083-0.002,0.119-0.007c0.036-0.011,0.073-0.019,0.114-0.028c0.077-0.027,0.155-0.064,0.243-0.115l-0.016-0.16
			L54.363,24.871L54.363,24.871z M53.385,24.22c0,0.139-0.021,0.252-0.062,0.34c-0.042,0.088-0.109,0.164-0.202,0.224
			c-0.093,0.06-0.196,0.088-0.3,0.088c-0.145,0-0.254-0.047-0.331-0.146c-0.083-0.096-0.119-0.232-0.119-0.41
			c0-0.109,0.021-0.209,0.067-0.303s0.104-0.162,0.166-0.205c0.067-0.043,0.166-0.076,0.285-0.104l0.295-0.091l0.202-0.08v0.688
			H53.385z"/>
		<path d="M55.3,21.588l0.026-0.616c-0.067,0.01-0.125,0.018-0.176,0.021c-0.051,0.002-0.103,0.005-0.15,0.005l-0.336-0.026
			l0.026,0.637l0.025,0.563v0.853l-0.025,0.675v0.846l-0.026,0.616l0.326-0.016l0.331,0.016L55.3,24.515l-0.016-0.576l-0.016-0.904
			l0.016-0.743L55.3,21.588z"/>
		<path d="M50.162,22.245c-0.404,0-0.735,0.137-0.988,0.417c-0.253,0.276-0.378,0.634-0.378,1.073c0,0.461,0.129,0.82,0.393,1.084
			c0.264,0.265,0.621,0.394,1.077,0.394c0.186,0,0.352-0.019,0.497-0.06c0.14-0.041,0.29-0.11,0.44-0.209
			c0.015-0.07,0.036-0.147,0.062-0.233c0.031-0.085,0.046-0.146,0.057-0.181l-0.041-0.031l-0.217,0.186
			c-0.037,0.029-0.125,0.073-0.264,0.135c-0.134,0.061-0.295,0.091-0.471,0.091c-0.264,0-0.476-0.099-0.647-0.292
			c-0.17-0.197-0.253-0.445-0.253-0.75v-0.085l0.911-0.017l0.528,0.017h0.492l0.015-0.14l0.005-0.09
			c0-0.396-0.109-0.713-0.326-0.951C50.829,22.364,50.534,22.245,50.162,22.245z M50.451,23.492h-0.518l-0.507-0.005
			c0-0.295,0.067-0.533,0.202-0.711c0.135-0.182,0.311-0.271,0.518-0.271c0.197,0,0.352,0.085,0.466,0.26
			c0.114,0.172,0.166,0.414,0.166,0.719L50.451,23.492z"/>
		<path d="M57.23,22.245c-0.409,0-0.74,0.137-0.994,0.417c-0.253,0.276-0.378,0.634-0.378,1.073c0,0.461,0.13,0.82,0.394,1.084
			c0.264,0.265,0.621,0.394,1.076,0.394c0.187,0,0.352-0.019,0.497-0.06c0.14-0.041,0.29-0.11,0.439-0.209
			c0.016-0.07,0.042-0.147,0.067-0.233c0.026-0.085,0.042-0.146,0.052-0.181l-0.042-0.031l-0.217,0.186
			c-0.036,0.029-0.124,0.073-0.264,0.135c-0.135,0.061-0.295,0.091-0.466,0.091c-0.264,0-0.481-0.099-0.652-0.292
			c-0.17-0.197-0.253-0.445-0.253-0.75v-0.085l0.916-0.017l0.528,0.017h0.486l0.021-0.14l0.005-0.09
			c0-0.396-0.114-0.713-0.331-0.951C57.897,22.364,57.597,22.245,57.23,22.245z M57.515,23.492h-0.518l-0.507-0.005
			c0-0.295,0.067-0.533,0.202-0.711c0.135-0.182,0.311-0.271,0.518-0.271c0.197,0,0.352,0.085,0.466,0.26
			c0.114,0.172,0.171,0.414,0.171,0.719L57.515,23.492z"/>
		<path d="M63.988,24.871c-0.062,0.021-0.109,0.03-0.145,0.03c-0.145,0-0.223-0.043-0.243-0.135
			c-0.016-0.093-0.026-0.228-0.026-0.406v-0.916v-0.42c0-0.246-0.078-0.436-0.238-0.569c-0.161-0.132-0.388-0.199-0.683-0.199
			c-0.191,0-0.368,0.028-0.523,0.085c-0.155,0.055-0.326,0.155-0.502,0.301l0.052,0.157l0.037,0.168h0.046
			c0.197-0.267,0.435-0.401,0.704-0.401c0.166,0,0.295,0.053,0.394,0.15c0.098,0.102,0.145,0.23,0.145,0.389
			c0,0.09-0.021,0.158-0.073,0.201c-0.052,0.045-0.155,0.086-0.311,0.125l-0.238,0.057c-0.264,0.07-0.445,0.133-0.549,0.185
			c-0.104,0.05-0.202,0.136-0.295,0.254c-0.098,0.119-0.145,0.279-0.145,0.479c0,0.242,0.077,0.437,0.228,0.587
			c0.155,0.149,0.357,0.222,0.605,0.222c0.331,0,0.605-0.124,0.817-0.373c0.078,0.249,0.233,0.373,0.476,0.373
			c0.046,0,0.088-0.002,0.125-0.007c0.031-0.011,0.072-0.019,0.113-0.028c0.073-0.027,0.155-0.064,0.244-0.115l-0.016-0.16
			L63.988,24.871L63.988,24.871z M63.005,24.22c0,0.139-0.021,0.252-0.057,0.34c-0.042,0.088-0.109,0.164-0.202,0.224
			c-0.099,0.06-0.197,0.088-0.3,0.088c-0.145,0-0.259-0.047-0.336-0.146c-0.078-0.096-0.119-0.232-0.119-0.41
			c0-0.109,0.026-0.209,0.067-0.303c0.047-0.094,0.104-0.162,0.171-0.205s0.16-0.076,0.285-0.104l0.295-0.091l0.197-0.08
			L63.005,24.22L63.005,24.22z"/>
		<path d="M60.604,22.335h-0.605h-0.414l-0.74-0.027l0.005,0.142l-0.016,0.249l0.538-0.026c0.119-0.019,0.228-0.026,0.311-0.026
			h0.196h0.481l-0.476,0.696l-0.559,0.735l-0.652,0.831l0.01,0.118l-0.01,0.135c0.062,0,0.15-0.002,0.269-0.008
			c0.119-0.004,0.212-0.008,0.27-0.008h0.652h0.285h0.274l0.688,0.016l-0.01-0.155l0.015-0.233l-0.683,0.021l-0.486,0.031H59.76
			h-0.259l0.233-0.354l0.212-0.309l0.352-0.48l0.269-0.367l0.269-0.336l0.326-0.412l-0.005-0.121l0.01-0.137L60.604,22.335z"/>
		<path d="M95.065,24.871c-0.063,0.021-0.108,0.03-0.146,0.03c-0.146,0-0.224-0.043-0.243-0.135
			c-0.016-0.093-0.025-0.228-0.025-0.406v-0.916v-0.42c0-0.246-0.077-0.436-0.237-0.569c-0.161-0.132-0.39-0.199-0.685-0.199
			c-0.195,0-0.367,0.028-0.526,0.085c-0.149,0.055-0.321,0.155-0.497,0.301l0.052,0.157l0.036,0.168h0.047
			c0.196-0.267,0.436-0.401,0.704-0.401c0.16,0,0.295,0.049,0.394,0.15s0.145,0.23,0.145,0.389c0,0.09-0.025,0.158-0.077,0.201
			c-0.047,0.045-0.149,0.086-0.306,0.125l-0.237,0.057c-0.265,0.07-0.45,0.133-0.549,0.182c-0.104,0.053-0.202,0.137-0.295,0.256
			c-0.099,0.119-0.146,0.279-0.146,0.479c0,0.244,0.077,0.438,0.229,0.588c0.154,0.15,0.355,0.222,0.605,0.222
			c0.33,0,0.604-0.124,0.813-0.373c0.076,0.249,0.236,0.373,0.48,0.373c0.047,0,0.088-0.002,0.119-0.007
			c0.035-0.008,0.077-0.02,0.118-0.029c0.072-0.025,0.155-0.064,0.243-0.115l-0.016-0.158V24.871L95.065,24.871z M94.082,24.22
			c0,0.139-0.021,0.252-0.058,0.34c-0.041,0.088-0.107,0.164-0.207,0.224c-0.092,0.06-0.19,0.088-0.299,0.088
			c-0.141,0-0.254-0.047-0.332-0.146c-0.078-0.096-0.119-0.232-0.119-0.41c0-0.109,0.021-0.209,0.067-0.303
			c0.046-0.095,0.104-0.162,0.171-0.205c0.067-0.043,0.16-0.076,0.284-0.104l0.295-0.091l0.196-0.08L94.082,24.22L94.082,24.22z"/>
	</g>
	<g>
		<path fill="#FFFFFF" d="M115.01,15.851c0.236-0.107,0.361-0.596,0.195-0.9c-0.145-0.269-0.518-0.509-0.863-0.308
			C113.508,15.126,114.43,16.118,115.01,15.851z"/>
		<path fill="#FFFFFF" d="M130.533,22.403c0.518-0.199,0.538-1.129-0.191-0.886C129.617,21.755,130.063,22.585,130.533,22.403z"/>
		<path fill="#FFFFFF" d="M112.459,14.724c-0.465,0.341,0.03,1.376,0.59,0.921C113.565,15.223,113.039,14.294,112.459,14.724z"/>
		<path fill="#FFFFFF" d="M137.582,14.231c-0.357-0.515-0.709-1.027-1.066-1.542c-0.172-0.385-0.104-0.667-0.367-0.954
			c-0.373-0.406-1.128-0.764-1.029-1.566c0.258-0.184,1.148-0.391,0.6-0.975c-0.154-0.163-0.444-0.256-0.692-0.15
			c-0.217,0.096-0.278,0.254-0.424,0.419l-0.031,0.034l-0.026,0.031c-0.449-0.706-0.512-1.11-1.418-1.668
			c-1.525-0.952-3.771-0.673-5.447-0.458c-1.139,0.145-1.48,0.08-2.008-0.696c-0.963-1.405-2.483,0.696-0.078,1.354
			c0.094,0.026,0.197,0.041,0.289,0.067c0.141,0.039,0.188,0.049,0.26,0.119c-0.91,0.854-2.275,1.55-4.01,1.498
			c-2.654-0.08-1.408-3.004-3.334-3.011c-1.268-0.003-2.018,2.176,0.928,3.278c0.496,0.186,1.086,0.349,1.641,0.458
			c0.508,0.101,1.479,0.054,1.6,0.556c-0.362,0.547-2.034,0.233-3.479,2.864c-0.719,1.305-1.216,3.671-2.882,3.635
			c-1.33-0.027-1.724-1.627-2.806-1.357c-0.506,0.129-0.744,0.91-0.465,1.457c0.207,0.41,0.725,0.707,1.277,0.873
			c2.659,0.803,3.653-1.045,6.225-1.823c2.033-0.616,4.072,0.489,4.177,1.784c0.083,1.066-1.351,1.625-2.494,0.304
			c-1.33-1.532-2.392,0.118-1.354,0.958c0.414,0.339,1.096,0.398,1.732,0.417c1.691,0.049,2.08,0.724,3.021,1.487
			c2.521,2.039,3.597-0.155,4.477-0.539c0.615-0.271,1.305,0.082,1.2,0.842c-0.093,0.667-0.833,0.51-1.181,1.05
			c-0.402,0.638,0.203,1.351,0.844,0.955c0.513-0.308,0.445-1.024,1.035-1.208c0.729-0.23,1.035,0.575,0.787,1.277
			c-0.312,0.873-1.692,2.392-0.586,3.145c0.229,0.155,0.527,0.27,0.854,0.182c0.223-0.061,0.491-0.326,0.491-0.643
			c0.006-0.717-1.194-0.525-0.75-1.379c0.394-0.758,1.961-0.794,2.529-2.002c0.223,0.096,0.219,0.179,0.502,0.171
			c0.131-0.409-0.295-0.726,0.398-1.026c0.361-0.16,0.833-0.091,1.057-0.406c0.217-0.315,0.311-0.748,0.146-1.156
			c-0.321-0.781,0.19-0.613,0.093-1.264c-0.621-0.66-1.434,0.213-1.826,0.299c-0.395,0.084-0.662-0.168-1.029-0.25
			c-0.627-0.137-0.651,0.185-1.092,0.127c-0.357-0.17-0.508-1.622,0.977-0.861c0.322,0.168,0.628,0.538,1,0.497
			c0.295-0.03,0.646-0.396,0.963-0.524c0.443-0.182,0.792-0.109,1.271-0.166c0.188-0.291,0.398-0.795,0.502-1.207
			c-0.595-0.041-0.688-0.057-1.014-0.439c-0.202-0.238-0.414-0.663-0.285-1.057c0.481-0.022,0.379,0.301,0.911,0.256
			c0.937-0.077,0.466,0.111,0.952,0.195C139.164,15.407,138.037,14.799,137.582,14.231z M134.445,13.345
			c-0.637,0.652-2.227-0.779-2.227-0.779C133.777,12.235,135.082,12.689,134.445,13.345z"/>
		<path fill="#FFFFFF" d="M128.592,6.729c0.496,0.044,0.166-0.683,0.078-0.937c-0.125-0.354-0.312-0.802-0.762-0.657
			C127.086,5.394,127.842,6.659,128.592,6.729z"/>
		<path fill="#FFFFFF" d="M121.975,8.817c0.656-0.367,0.311-1.943-0.602-1.454C120.541,7.808,121.338,9.177,121.975,8.817z"/>
		<path fill="#FFFFFF" d="M0.268,0.822C0.39,0.802,0.469,0.791,0.51,0.791h0.174l0.393-0.055h0.44l0.023,1.752L1.495,4.822
			L1.456,5.679l0.52-0.023l0.546,0.023L2.459,4.001V2.434l0.016-1.697h0.406l0.351,0.054h0.404l0.497,0.064l-0.016-0.37l0.016-0.339
			L3.054,0.178h-2.17c-0.117,0-0.282-0.005-0.505-0.016c-0.218-0.01-0.383-0.015-0.489-0.015h-0.026l0.008,0.246l-0.016,0.478
			L0.268,0.822z"/>
		<path fill="#FFFFFF" d="M4.989,0.949c0.15,0,0.277-0.054,0.383-0.163C5.479,0.675,5.53,0.553,5.53,0.416
			c0-0.147-0.052-0.271-0.152-0.373c-0.104-0.1-0.231-0.152-0.381-0.152c-0.142,0-0.269,0.052-0.372,0.155
			C4.52,0.152,4.464,0.273,4.464,0.416c0,0.153,0.052,0.28,0.155,0.38C4.724,0.896,4.844,0.949,4.989,0.949z"/>
		<path fill="#FFFFFF" d="M5.447,2.592V2.079v-0.55c-0.096,0.01-0.181,0.02-0.256,0.023C5.12,1.555,5.046,1.557,4.981,1.557H4.768
			L4.519,1.529l0.023,1.035l0.036,0.73v0.427L4.542,4.527c0,0.044-0.005,0.215-0.01,0.51C4.524,5.332,4.52,5.537,4.52,5.653
			l0.467-0.024h0.106l0.122,0.023h0.15h0.083L5.409,3.896V3.348L5.447,2.592z"/>
		<path fill="#FFFFFF" d="M7.379,5.653L7.35,4.606L7.329,3.904V3.605V3.301c0-0.398,0.096-0.716,0.29-0.957
			c0.191-0.241,0.448-0.36,0.769-0.36c0.15,0,0.297,0.034,0.437,0.099c0.14,0.067,0.238,0.158,0.3,0.274
			C9.194,2.468,9.23,2.669,9.23,2.959v0.456v0.365l-0.031,0.7c0,0.075-0.005,0.261-0.013,0.559C9.175,5.336,9.17,5.541,9.17,5.653
			l0.479-0.023l0.463,0.023l-0.028-0.737l-0.008-1.012V3.605v-0.39l0.008-0.419c0-0.417-0.127-0.748-0.383-0.993
			C9.447,1.557,9.113,1.435,8.703,1.435c-0.388,0-0.678,0.08-0.864,0.241c-0.189,0.16-0.308,0.275-0.36,0.347l-0.15,0.204
			L7.35,1.924l0.016-0.388C7.32,1.539,7.253,1.549,7.164,1.564H6.917l-0.21-0.008l-0.248-0.02v0.771l0.039,0.993v0.404l-0.039,0.84
			c0,0.101-0.005,0.285-0.018,0.543c-0.013,0.26-0.019,0.449-0.019,0.565l0.471-0.023L7.379,5.653z"/>
		<path fill="#FFFFFF" d="M11.202,1.992v1.615L11.178,4.74c0,0.32,0.096,0.564,0.282,0.734c0.187,0.171,0.443,0.256,0.769,0.256
			c0.104,0,0.191-0.005,0.272-0.016c0.078-0.01,0.15-0.023,0.217-0.039c0.142-0.037,0.297-0.099,0.471-0.191l-0.06-0.158
			l-0.031-0.184c-0.173,0.096-0.344,0.145-0.51,0.145c-0.311,0-0.481-0.101-0.515-0.3c-0.033-0.202-0.049-0.419-0.049-0.66V3.621
			v-1.63h0.303l0.74,0.039l-0.016-0.259l0.008-0.259c-0.347,0.036-0.644,0.052-0.893,0.052h-0.142V1.039l0.06-0.698l-0.267,0.142
			l-0.202,0.101l-0.207,0.083l-0.23,0.078v0.357l0.016,0.463H10.91l-0.3-0.052v0.189l-0.015,0.313h0.424L11.202,1.992z"/>
		<path fill="#FFFFFF" d="M17.069,5.234c-0.085,0.031-0.152,0.046-0.204,0.046c-0.207,0-0.324-0.067-0.35-0.197
			c-0.026-0.132-0.039-0.329-0.039-0.587V3.17V2.563c0-0.354-0.117-0.631-0.344-0.823c-0.233-0.191-0.562-0.29-0.991-0.29
			c-0.279,0-0.53,0.042-0.758,0.122c-0.223,0.083-0.466,0.228-0.722,0.435l0.075,0.228l0.052,0.243h0.064
			c0.287-0.385,0.629-0.577,1.022-0.577c0.233,0,0.421,0.072,0.564,0.217c0.145,0.145,0.215,0.331,0.215,0.559
			c0,0.132-0.036,0.23-0.109,0.292c-0.075,0.065-0.225,0.125-0.448,0.179l-0.344,0.085c-0.38,0.101-0.647,0.188-0.794,0.261
			c-0.147,0.072-0.29,0.197-0.427,0.37c-0.14,0.174-0.207,0.404-0.207,0.691c0,0.352,0.111,0.634,0.331,0.849
			c0.22,0.217,0.51,0.326,0.872,0.326c0.481,0,0.875-0.181,1.18-0.541c0.111,0.359,0.341,0.541,0.693,0.541
			c0.065,0,0.122-0.005,0.173-0.016c0.052-0.013,0.109-0.026,0.168-0.039c0.106-0.039,0.223-0.093,0.35-0.168l-0.023-0.23
			L17.069,5.234L17.069,5.234z M15.654,4.292c0,0.202-0.028,0.367-0.088,0.494c-0.057,0.126-0.155,0.233-0.292,0.318
			c-0.137,0.088-0.282,0.129-0.435,0.129c-0.207,0-0.368-0.07-0.484-0.21c-0.114-0.137-0.171-0.336-0.171-0.595
			c0-0.158,0.034-0.306,0.101-0.44c0.064-0.132,0.145-0.23,0.243-0.292c0.096-0.06,0.233-0.111,0.411-0.152l0.424-0.129l0.29-0.114
			L15.654,4.292L15.654,4.292z"/>
		<path fill="#FFFFFF" d="M19.61,5.352c0.305-0.269,0.463-0.605,0.463-1.001c0-0.43-0.191-0.758-0.572-0.983l-0.383-0.173
			l-0.388-0.14c-0.217-0.078-0.38-0.171-0.481-0.274c-0.098-0.101-0.147-0.228-0.147-0.377c0-0.161,0.063-0.297,0.189-0.412
			c0.127-0.114,0.277-0.173,0.448-0.173c0.186,0,0.359,0.06,0.512,0.171c0.155,0.114,0.271,0.269,0.347,0.46l0.005,0.018h0.106
			l0.155-0.551l0.085-0.22l-0.021-0.01c-0.23-0.101-0.417-0.168-0.562-0.202c-0.145-0.034-0.243-0.055-0.297-0.063
			c-0.057-0.008-0.16-0.013-0.315-0.013c-0.422,0-0.771,0.122-1.043,0.362c-0.269,0.238-0.406,0.548-0.406,0.921
			c0,0.197,0.049,0.383,0.147,0.554c0.099,0.168,0.223,0.3,0.37,0.394c0.145,0.088,0.342,0.181,0.587,0.271l0.266,0.098
			c0.404,0.153,0.608,0.37,0.608,0.647c0,0.184-0.072,0.336-0.215,0.453c-0.145,0.117-0.329,0.176-0.546,0.176
			c-0.153,0-0.311-0.039-0.466-0.111c-0.16-0.085-0.274-0.166-0.339-0.241c-0.067-0.078-0.122-0.171-0.16-0.277l-0.011-0.028
			l-0.11,0.056l-0.049,0.274l-0.083,0.342l-0.06,0.176l0.019,0.008c0.357,0.178,0.753,0.269,1.177,0.269
			C18.912,5.753,19.304,5.619,19.61,5.352z"/>
		<path fill="#FFFFFF" d="M43.83,11.745c0.311,0,0.59,0.092,0.854,0.278l0.155-0.106V10.88V9.844h-0.3
			c-0.207,0-0.403,0.023-0.584,0.07c-0.187,0.046-0.383,0.119-0.59,0.212c-0.414,0.223-0.693,0.427-0.849,0.616l-0.367,0.562
			l-0.279,0.615v-0.508v-0.583l0.067-0.859c-0.197,0.034-0.394,0.057-0.58,0.07c-0.187,0.01-0.352,0.018-0.492,0.018l-1.022-0.088
			l0.054,2.603l0.052,1.936l-0.052,2.957l-0.088,2.041l1.056-0.053l1.123,0.053l-0.067-2.069l-0.052-1.646l0.052-1.979
			c0.057-0.435,0.15-0.787,0.285-1.062c0.176-0.305,0.409-0.551,0.699-0.731C43.192,11.835,43.499,11.745,43.83,11.745z"/>
		<polygon fill="#FFFFFF" points="6.466,18.534 6.502,18.2 5.385,18.325 4.197,18.395 3.025,18.395 2.156,18.395 2.156,17.094 
			2.104,12.71 2.156,11.005 2.156,8.875 2.296,6.853 1.4,6.905 1.12,6.905 0.556,6.905 -0.061,6.853 0.011,9.106 0.082,10.671 
			0.082,12.782 0.011,14.894 0.011,17.62 -0.095,19.505 1.453,19.433 3.23,19.433 6.502,19.505 6.448,19.204 6.448,18.87 		"/>
		<path fill="#FFFFFF" d="M110.967,9.914c-0.18,0.046-0.377,0.119-0.59,0.212c-0.414,0.223-0.692,0.427-0.842,0.616l-0.373,0.562
			l-0.279,0.615v-0.508v-0.583l0.066-0.859c-0.195,0.034-0.388,0.057-0.58,0.07c-0.186,0.01-0.352,0.018-0.49,0.018l-1.021-0.088
			l0.052,2.603l0.053,1.936l-0.053,2.957l-0.088,2.041l1.057-0.053l1.127,0.053l-0.071-2.069l-0.052-1.646l0.052-1.979
			c0.058-0.435,0.149-0.787,0.284-1.062c0.177-0.305,0.408-0.551,0.699-0.731c0.289-0.181,0.595-0.272,0.926-0.272
			c0.311,0,0.59,0.094,0.854,0.279l0.154-0.105V10.88V9.844h-0.295C111.346,9.844,111.149,9.868,110.967,9.914z"/>
		<path fill="#FFFFFF" d="M37.485,7.241l0.07-1.759L37.03,5.534c-0.161,0.023-0.277,0.036-0.35,0.036h-0.189l-0.473-0.018
			l-0.626-0.07l0.052,1.899l0.088,1.371v1.146l-0.019,0.862c-0.445-0.365-0.872-0.616-1.278-0.758
			c-0.404-0.14-0.88-0.209-1.418-0.209c-1.317,0-2.385,0.476-3.203,1.433c-0.818,0.955-1.227,2.18-1.227,3.669
			c0,1.407,0.385,2.556,1.154,3.449c0.769,0.89,1.739,1.337,2.911,1.337c0.504,0,1.012-0.114,1.521-0.336
			c0.512-0.223,0.835-0.436,0.978-0.631l0.334-0.494l0.246-0.422v0.297c0,0.119-0.003,0.271-0.008,0.458
			c-0.005,0.188-0.034,0.504-0.081,0.952l1.092-0.055l1.001,0.055l-0.104-4.067l-0.054-3.782l0.054-2.251L37.485,7.241z
			 M34.829,17.444c-0.468,0.737-1.084,1.107-1.847,1.107c-0.75,0-1.34-0.34-1.767-1.02c-0.43-0.681-0.642-1.582-0.642-2.709
			c0-1.291,0.233-2.303,0.704-3.035c0.468-0.733,1.094-1.1,1.881-1.1c0.763,0,1.351,0.324,1.759,0.977
			c0.412,0.651,0.616,1.567,0.616,2.752C35.532,15.696,35.298,16.704,34.829,17.444z"/>
		<path fill="#FFFFFF" d="M11.341,9.755c-1.467,0-2.657,0.463-3.573,1.387c-0.914,0.927-1.372,2.104-1.372,3.531
			c0,1.462,0.458,2.646,1.372,3.547c0.916,0.899,2.105,1.353,3.573,1.353c1.467,0,2.66-0.455,3.581-1.361
			c0.921-0.91,1.379-2.088,1.379-3.539s-0.455-2.635-1.371-3.549C14.017,10.213,12.818,9.755,11.341,9.755z M13.453,17.773
			c-0.494,0.683-1.198,1.027-2.111,1.027c-0.926,0-1.63-0.351-2.111-1.046c-0.481-0.698-0.722-1.707-0.722-3.029
			s0.251-2.333,0.755-3.037c0.504-0.701,1.198-1.053,2.078-1.053c1.899,0,2.849,1.4,2.849,4.197
			C14.189,16.107,13.943,17.085,13.453,17.773z"/>
		<path fill="#FFFFFF" d="M24.572,15.176l-0.07,1.616c0,0.177-0.013,0.609-0.036,1.293c-0.023,0.687-0.036,1.16-0.036,1.418
			l1.107-0.053l1.074,0.053l-0.07-1.707l-0.015-2.342v-0.686v-0.9l0.015-0.97c0-0.965-0.292-1.729-0.882-2.295
			c-0.587-0.567-1.358-0.849-2.311-0.849c-0.895,0-1.563,0.186-1.997,0.554c-0.438,0.37-0.712,0.636-0.828,0.802l-0.35,0.474
			l0.052-0.705l0.034-0.895c-0.101,0.01-0.256,0.034-0.466,0.07h-0.572l-0.484-0.018l-0.572-0.052v1.783l0.088,2.295v0.938
			l-0.088,1.943c0,0.235-0.013,0.654-0.044,1.254c-0.029,0.604-0.044,1.035-0.044,1.307l1.092-0.053l1.125,0.053l-0.07-2.418
			l-0.052-1.631v-0.686v-0.706c0-0.921,0.223-1.655,0.668-2.212c0.445-0.554,1.037-0.828,1.777-0.828
			c0.352,0,0.688,0.075,1.012,0.229c0.323,0.152,0.554,0.365,0.693,0.634c0.166,0.259,0.248,0.722,0.248,1.39v1.057v0.843H24.572z"
			/>
		<path fill="#FFFFFF" d="M60.347,18.765c0.699-0.611,1.05-1.366,1.05-2.27c0-0.976-0.429-1.713-1.283-2.217l-0.879-0.406
			l-0.9-0.315c-0.518-0.188-0.896-0.405-1.133-0.651c-0.243-0.246-0.362-0.552-0.362-0.914c0-0.388,0.155-0.719,0.46-0.994
			c0.3-0.277,0.663-0.414,1.071-0.414c0.445,0,0.854,0.135,1.221,0.404c0.373,0.269,0.642,0.634,0.817,1.091h0.161l0.249-0.863
			l0.104-0.367l0.176-0.458C60.57,10.156,60.141,10,59.815,9.925c-0.332-0.078-0.559-0.124-0.688-0.142
			c-0.129-0.016-0.367-0.026-0.719-0.026c-0.962,0-1.749,0.274-2.365,0.817c-0.621,0.546-0.926,1.242-0.926,2.085
			c0,0.444,0.114,0.86,0.336,1.25c0.222,0.389,0.497,0.683,0.833,0.887c0.336,0.207,0.781,0.414,1.346,0.627l0.615,0.229
			c0.963,0.364,1.444,0.879,1.444,1.547c0,0.446-0.17,0.812-0.517,1.092c-0.347,0.281-0.776,0.424-1.294,0.424
			c-0.367,0-0.735-0.088-1.107-0.268c-0.377-0.199-0.646-0.388-0.802-0.572c-0.161-0.18-0.285-0.4-0.378-0.659l-0.176,0.088
			l-0.111,0.608l-0.067,0.285l-0.125,0.518l-0.124,0.349c0.823,0.412,1.718,0.618,2.691,0.618
			C58.762,19.681,59.652,19.374,60.347,18.765z"/>
		<path fill="#FFFFFF" d="M78.162,18.765c0-0.436,0.021-0.734,0.053-0.898l0.211-0.879l-0.123-0.07
			c-0.643,0.645-1.258,1.109-1.848,1.396c-0.584,0.29-1.228,0.432-1.914,0.432c-1.397,0-2.511-0.488-3.344-1.469
			c-0.833-0.978-1.252-2.3-1.252-3.966c0-1.772,0.393-3.164,1.18-4.178c0.787-1.014,1.879-1.524,3.271-1.524
			c1.505,0,2.711,0.652,3.627,1.953l0.176-0.07l0.104-0.843l0.109-0.476l0.104-0.404c-0.549-0.365-1.176-0.639-1.873-0.828
			c-0.698-0.187-1.428-0.282-2.188-0.282c-2.02,0-3.644,0.605-4.875,1.814c-1.231,1.208-1.848,2.778-1.848,4.714
			s0.621,3.5,1.861,4.698c1.242,1.194,2.853,1.795,4.824,1.795c1.138,0,1.949-0.106,2.446-0.317l0.88-0.389L78.162,18.765z"/>
		<path fill="#FFFFFF" d="M89.354,14.674c0-1.451-0.461-2.634-1.377-3.55c-0.91-0.911-2.11-1.369-3.586-1.369
			c-1.47,0-2.659,0.463-3.57,1.387c-0.916,0.927-1.376,2.104-1.376,3.531c0,1.462,0.46,2.646,1.376,3.547
			c0.911,0.899,2.103,1.353,3.57,1.353c1.465,0,2.659-0.455,3.581-1.361C88.894,17.303,89.354,16.126,89.354,14.674z M86.502,17.773
			c-0.49,0.683-1.194,1.027-2.11,1.027c-0.927,0-1.63-0.351-2.11-1.046c-0.48-0.698-0.725-1.707-0.725-3.029
			s0.253-2.333,0.761-3.037c0.502-0.701,1.194-1.053,2.074-1.053c1.899,0,2.853,1.4,2.853,4.197
			C87.244,16.107,86.996,17.085,86.502,17.773z"/>
		<path fill="#FFFFFF" d="M100.049,9.755c-1.463,0-2.653,0.463-3.569,1.387c-0.916,0.927-1.376,2.104-1.376,3.531
			c0,1.462,0.46,2.646,1.376,3.547c0.916,0.899,2.106,1.353,3.569,1.353c1.466,0,2.66-0.455,3.582-1.361
			c0.92-0.91,1.381-2.088,1.381-3.539s-0.461-2.635-1.37-3.549C102.726,10.213,101.524,9.755,100.049,9.755z M102.162,17.773
			c-0.492,0.683-1.195,1.027-2.111,1.027c-0.926,0-1.631-0.351-2.111-1.046c-0.48-0.698-0.719-1.707-0.719-3.029
			s0.248-2.333,0.756-3.037c0.502-0.701,1.195-1.053,2.074-1.053c1.898,0,2.852,1.4,2.852,4.197
			C102.901,16.107,102.653,17.085,102.162,17.773z"/>
		<path fill="#FFFFFF" d="M93.24,17.339l-0.052-1.918l-0.052-3.026l0.052-2.481l0.052-2.357l0.088-2.06
			c-0.222,0.036-0.424,0.06-0.6,0.072c-0.178,0.011-0.337,0.016-0.492,0.016l-1.122-0.088l0.089,2.129l0.088,1.883v2.852
			l-0.088,2.25v2.834l-0.089,2.059l1.087-0.053l1.111,0.053L93.24,17.339z"/>
		<path fill="#FFFFFF" d="M51.71,19.474c0.476-0.135,0.962-0.368,1.47-0.699c0.057-0.238,0.129-0.496,0.223-0.779
			c0.083-0.285,0.145-0.483,0.181-0.604l-0.14-0.106l-0.725,0.627c-0.129,0.092-0.424,0.242-0.885,0.444
			c-0.455,0.202-0.978,0.304-1.567,0.304c-0.88,0-1.604-0.326-2.168-0.976c-0.569-0.651-0.849-1.487-0.849-2.507v-0.282l3.053-0.054
			l1.764,0.054h1.641l0.052-0.474l0.021-0.297c0-1.325-0.368-2.379-1.102-3.175c-0.735-0.794-1.723-1.192-2.965-1.192
			c-1.361,0-2.463,0.463-3.307,1.389c-0.844,0.926-1.268,2.124-1.268,3.592c0,1.533,0.439,2.741,1.319,3.621
			c0.879,0.879,2.075,1.322,3.591,1.322C50.681,19.681,51.233,19.61,51.71,19.474z M47.927,11.526
			c0.45-0.606,1.029-0.909,1.733-0.909c0.657,0,1.174,0.292,1.547,0.87c0.378,0.576,0.564,1.375,0.564,2.403l-1.092,0.036H48.94
			l-1.692-0.018C47.25,12.923,47.478,12.128,47.927,11.526z"/>
		<path fill="#FFFFFF" d="M37.066,23.489l-0.264-0.123l-0.269-0.093c-0.152-0.057-0.267-0.122-0.339-0.196
			c-0.072-0.072-0.106-0.166-0.106-0.271c0-0.116,0.044-0.217,0.134-0.297c0.093-0.083,0.199-0.125,0.321-0.125
			c0.135,0,0.256,0.039,0.368,0.121c0.111,0.08,0.191,0.189,0.243,0.326h0.049l0.073-0.258l0.031-0.111l0.055-0.137
			c-0.158-0.07-0.287-0.117-0.386-0.138c-0.098-0.022-0.166-0.039-0.204-0.044c-0.039-0.005-0.111-0.008-0.218-0.008
			c-0.287,0-0.522,0.083-0.706,0.246c-0.184,0.162-0.277,0.369-0.277,0.623c0,0.133,0.034,0.257,0.101,0.373
			c0.064,0.117,0.15,0.205,0.248,0.268c0.101,0.063,0.235,0.124,0.404,0.186l0.184,0.07c0.287,0.108,0.432,0.262,0.432,0.463
			c0,0.133-0.052,0.241-0.155,0.326c-0.104,0.083-0.233,0.126-0.388,0.126c-0.108,0-0.217-0.026-0.331-0.079
			c-0.111-0.061-0.191-0.117-0.238-0.172c-0.049-0.054-0.085-0.121-0.114-0.197l-0.052,0.026l-0.033,0.181l-0.023,0.086
			l-0.036,0.154l-0.036,0.104c0.246,0.125,0.515,0.185,0.805,0.185c0.323,0,0.59-0.09,0.797-0.271
			c0.209-0.185,0.313-0.409,0.313-0.68C37.449,23.862,37.322,23.639,37.066,23.489z"/>
		<path fill="#FFFFFF" d="M42.069,21.383l0.021-0.525l-0.155,0.017c-0.047,0.008-0.083,0.01-0.104,0.01h-0.057l-0.14-0.006
			l-0.191-0.021l0.016,0.567l0.026,0.41v0.342l-0.005,0.259c-0.129-0.108-0.259-0.185-0.383-0.226
			c-0.119-0.043-0.261-0.064-0.422-0.064c-0.393,0-0.714,0.143-0.959,0.43c-0.244,0.285-0.365,0.651-0.365,1.096
			c0,0.423,0.114,0.767,0.344,1.033s0.52,0.397,0.872,0.397c0.15,0,0.303-0.03,0.453-0.099c0.155-0.066,0.253-0.129,0.295-0.188
			l0.098-0.147l0.073-0.125v0.09c0,0.033,0,0.08,0,0.134c0,0.058-0.011,0.153-0.026,0.285l0.326-0.015l0.3,0.015l-0.031-1.216
			l-0.016-1.131l0.016-0.676L42.069,21.383z M41.278,24.436c-0.14,0.224-0.326,0.331-0.554,0.331c-0.225,0-0.401-0.102-0.53-0.305
			c-0.127-0.202-0.191-0.473-0.191-0.811c0-0.386,0.07-0.688,0.209-0.908c0.142-0.22,0.329-0.328,0.564-0.328
			c0.228,0,0.403,0.096,0.528,0.291c0.124,0.195,0.181,0.469,0.181,0.824C41.485,23.913,41.418,24.216,41.278,24.436z"/>
		<path fill="#FFFFFF" d="M32.23,22.183c-0.054,0.016-0.114,0.036-0.176,0.064c-0.122,0.067-0.207,0.127-0.251,0.185L31.692,22.6
			l-0.085,0.185v-0.152v-0.174l0.021-0.258c-0.06,0.012-0.117,0.018-0.173,0.022c-0.057,0.002-0.106,0.005-0.147,0.005L31.003,22.2
			l0.015,0.78l0.016,0.577l-0.016,0.885l-0.026,0.61l0.316-0.015l0.336,0.015l-0.021-0.618l-0.015-0.492l0.015-0.592
			c0.018-0.129,0.046-0.234,0.085-0.318c0.052-0.09,0.124-0.162,0.209-0.217c0.085-0.057,0.179-0.083,0.277-0.083
			c0.093,0,0.176,0.029,0.256,0.085l0.046-0.033v-0.311v-0.311h-0.09C32.344,22.161,32.286,22.169,32.23,22.183z"/>
		<path fill="#FFFFFF" d="M22.525,23.489l-0.261-0.123l-0.269-0.093c-0.155-0.057-0.267-0.122-0.339-0.196
			c-0.073-0.072-0.109-0.166-0.109-0.271c0-0.116,0.047-0.217,0.137-0.297c0.09-0.083,0.199-0.125,0.321-0.125
			c0.135,0,0.256,0.039,0.365,0.121c0.111,0.08,0.194,0.189,0.246,0.326h0.049l0.073-0.258l0.031-0.111l0.052-0.137
			c-0.155-0.07-0.285-0.117-0.383-0.138c-0.098-0.022-0.166-0.039-0.205-0.044s-0.111-0.008-0.217-0.008
			c-0.287,0-0.522,0.083-0.706,0.246c-0.187,0.162-0.277,0.369-0.277,0.623c0,0.133,0.033,0.257,0.101,0.373
			c0.065,0.117,0.147,0.205,0.249,0.268s0.235,0.124,0.404,0.186l0.184,0.07c0.287,0.108,0.432,0.262,0.432,0.463
			c0,0.133-0.052,0.241-0.155,0.326c-0.104,0.083-0.233,0.126-0.388,0.126c-0.108,0-0.22-0.026-0.331-0.079
			c-0.111-0.061-0.191-0.117-0.241-0.172c-0.046-0.054-0.085-0.121-0.111-0.197l-0.054,0.026l-0.031,0.181l-0.021,0.086
			l-0.036,0.154l-0.039,0.104c0.246,0.125,0.515,0.185,0.808,0.185c0.323,0,0.587-0.09,0.797-0.271
			c0.209-0.185,0.313-0.409,0.313-0.68C22.912,23.862,22.785,23.639,22.525,23.489z"/>
		<path fill="#FFFFFF" d="M20.484,23.96l-0.308-0.842l-0.306-0.877l-0.243-0.769l-0.062-0.209c-0.026,0.002-0.064,0.01-0.116,0.019
			h-0.137l-0.127-0.006l-0.137-0.013l-0.083,0.198c-0.15,0.375-0.378,0.914-0.691,1.615c-0.339,0.758-0.574,1.275-0.711,1.547
			l-0.096,0.197l-0.119,0.229l0.23-0.015l0.243,0.015l0.114-0.333l0.106-0.277l0.106-0.27l0.199-0.449h0.742h0.637l0.253,0.764
			l0.168,0.565l0.401-0.015l0.398,0.015l-0.23-0.505L20.484,23.96z M19.08,23.409l-0.212-0.011h-0.158h-0.226l0.621-1.446
			l0.522,1.446L19.08,23.409z"/>
		<path fill="#FFFFFF" d="M26.295,22.39c0.38,0,0.611,0.209,0.691,0.631l0.057-0.01l0.042-0.158l0.049-0.122l0.052-0.132l0.07-0.143
			c-0.158-0.121-0.305-0.205-0.437-0.246c-0.135-0.043-0.306-0.064-0.513-0.064c-0.442,0-0.799,0.137-1.076,0.414
			c-0.274,0.273-0.411,0.628-0.411,1.061c0,0.436,0.14,0.789,0.417,1.066c0.279,0.273,0.639,0.412,1.076,0.412
			c0.3,0,0.569-0.075,0.813-0.225l0.031-0.18l0.057-0.195l-0.057-0.031c-0.217,0.22-0.453,0.326-0.706,0.326
			c-0.29,0-0.528-0.114-0.711-0.342c-0.187-0.229-0.277-0.522-0.277-0.886c0-0.342,0.078-0.626,0.235-0.846
			C25.854,22.501,26.054,22.39,26.295,22.39z"/>
		<path fill="#FFFFFF" d="M28.965,22.136c-0.44,0-0.794,0.137-1.069,0.417c-0.274,0.276-0.412,0.626-0.412,1.056
			c0,0.438,0.138,0.793,0.412,1.061c0.274,0.27,0.629,0.404,1.069,0.404c0.437,0,0.794-0.135,1.071-0.406
			c0.274-0.271,0.414-0.623,0.414-1.057c0-0.436-0.137-0.789-0.412-1.064C29.766,22.272,29.409,22.136,28.965,22.136z
			 M29.597,24.534c-0.147,0.205-0.357,0.309-0.631,0.309c-0.277,0-0.489-0.104-0.632-0.313c-0.145-0.207-0.217-0.511-0.217-0.906
			c0-0.396,0.075-0.698,0.228-0.912c0.15-0.207,0.357-0.313,0.621-0.313c0.569,0,0.851,0.42,0.851,1.256
			C29.816,24.034,29.745,24.329,29.597,24.534z"/>
		<path fill="#FFFFFF" d="M33.954,22.136c-0.406,0-0.735,0.137-0.988,0.417c-0.253,0.276-0.38,0.634-0.38,1.073
			c0,0.461,0.132,0.82,0.396,1.084c0.264,0.265,0.621,0.394,1.074,0.394c0.189,0,0.354-0.019,0.497-0.06
			c0.143-0.041,0.29-0.11,0.44-0.209c0.018-0.07,0.042-0.147,0.067-0.233c0.026-0.085,0.044-0.146,0.054-0.181l-0.042-0.031
			l-0.217,0.186c-0.039,0.029-0.126,0.073-0.264,0.135c-0.137,0.061-0.295,0.091-0.468,0.091c-0.264,0-0.481-0.099-0.649-0.292
			c-0.171-0.197-0.254-0.445-0.254-0.75v-0.085l0.914-0.017l0.528,0.017h0.489l0.016-0.14l0.005-0.09
			c0-0.396-0.109-0.713-0.329-0.951C34.625,22.255,34.327,22.136,33.954,22.136z M34.244,23.383h-0.52l-0.505-0.005
			c0-0.295,0.067-0.533,0.202-0.711c0.134-0.182,0.308-0.271,0.518-0.271c0.199,0,0.352,0.085,0.465,0.26
			c0.111,0.172,0.168,0.414,0.168,0.719L34.244,23.383z"/>
		<path fill="#FFFFFF" d="M45.215,24.762c-0.062,0.021-0.108,0.03-0.145,0.03c-0.145,0-0.223-0.043-0.243-0.135
			c-0.016-0.093-0.026-0.228-0.026-0.406v-0.916v-0.42c0-0.246-0.078-0.436-0.238-0.569c-0.16-0.132-0.388-0.199-0.683-0.199
			c-0.196,0-0.367,0.028-0.522,0.085c-0.155,0.055-0.326,0.155-0.502,0.301l0.052,0.157l0.036,0.168h0.047
			c0.196-0.267,0.435-0.401,0.704-0.401c0.16,0,0.295,0.053,0.393,0.15c0.099,0.102,0.145,0.23,0.145,0.389
			c0,0.09-0.021,0.158-0.073,0.201c-0.052,0.045-0.155,0.086-0.31,0.125l-0.238,0.057c-0.264,0.07-0.445,0.133-0.548,0.185
			c-0.104,0.05-0.202,0.136-0.295,0.254c-0.099,0.119-0.145,0.279-0.145,0.479c0,0.242,0.078,0.437,0.228,0.587
			c0.155,0.149,0.357,0.222,0.605,0.222c0.332,0,0.605-0.124,0.818-0.373c0.072,0.249,0.232,0.373,0.476,0.373
			c0.046,0,0.088-0.002,0.124-0.007c0.031-0.011,0.072-0.019,0.114-0.028c0.072-0.027,0.155-0.064,0.243-0.115l-0.016-0.16
			L45.215,24.762L45.215,24.762z M44.232,24.11c0,0.139-0.021,0.252-0.057,0.34c-0.041,0.088-0.108,0.164-0.202,0.224
			c-0.098,0.06-0.197,0.088-0.3,0.088c-0.145,0-0.259-0.047-0.336-0.146c-0.078-0.096-0.119-0.232-0.119-0.41
			c0-0.109,0.026-0.209,0.067-0.303c0.046-0.094,0.104-0.162,0.17-0.205c0.067-0.043,0.161-0.076,0.285-0.104l0.295-0.091
			l0.197-0.08V24.11z"/>
		<path fill="#FFFFFF" d="M79.793,22.806l0.041-0.607c-0.037,0.004-0.082,0.012-0.146,0.022h-0.177l-0.33-0.022l0.016,0.565
			l0.016,0.651v0.164v0.306c0,0.269-0.063,0.476-0.182,0.62c-0.119,0.148-0.29,0.221-0.513,0.221c-0.207,0-0.356-0.047-0.444-0.145
			c-0.094-0.096-0.135-0.26-0.135-0.486V23.62v-0.201l0.031-0.598l0.016-0.625c-0.066,0.014-0.13,0.019-0.188,0.023
			c-0.057,0.002-0.107,0.005-0.149,0.005l-0.315-0.028l0.017,0.564l0.016,0.654v0.164v0.256v0.427c0,0.243,0.089,0.442,0.265,0.603
			c0.17,0.16,0.388,0.238,0.646,0.238c0.383,0,0.703-0.17,0.951-0.52v0.232l-0.03,0.235c0.036-0.002,0.082-0.011,0.146-0.021h0.181
			l0.312,0.021l-0.041-0.759c0-0.066-0.006-0.176-0.006-0.325c-0.006-0.15-0.006-0.251-0.006-0.304l0.012-0.379v-0.479H79.793z"/>
		<path fill="#FFFFFF" d="M82.943,24.762c-0.057,0.021-0.104,0.03-0.141,0.03c-0.146,0-0.227-0.043-0.242-0.135
			c-0.016-0.093-0.025-0.228-0.025-0.406v-0.916v-0.42c0-0.246-0.082-0.436-0.238-0.569c-0.16-0.132-0.389-0.199-0.688-0.199
			c-0.19,0-0.362,0.028-0.522,0.085c-0.154,0.055-0.32,0.155-0.496,0.301l0.052,0.157l0.036,0.168h0.041
			c0.201-0.267,0.436-0.401,0.709-0.401c0.16,0,0.295,0.053,0.389,0.15c0.098,0.102,0.148,0.23,0.148,0.389
			c0,0.09-0.024,0.158-0.076,0.201c-0.047,0.045-0.155,0.086-0.307,0.125l-0.236,0.057c-0.266,0.07-0.45,0.133-0.549,0.185
			c-0.104,0.05-0.203,0.136-0.301,0.254c-0.094,0.119-0.14,0.279-0.14,0.479c0,0.242,0.077,0.437,0.228,0.587
			c0.155,0.149,0.353,0.222,0.601,0.222c0.337,0,0.604-0.124,0.817-0.373c0.078,0.249,0.237,0.373,0.48,0.373
			c0.042,0,0.083-0.002,0.119-0.007c0.035-0.011,0.072-0.019,0.113-0.028c0.078-0.027,0.156-0.064,0.244-0.115l-0.017-0.16
			L82.943,24.762L82.943,24.762z M81.965,24.11c0,0.139-0.021,0.252-0.063,0.34c-0.042,0.088-0.109,0.164-0.201,0.224
			c-0.094,0.06-0.191,0.088-0.301,0.088c-0.145,0-0.254-0.047-0.331-0.146c-0.083-0.096-0.118-0.232-0.118-0.41
			c0-0.109,0.021-0.209,0.066-0.303s0.104-0.162,0.165-0.205c0.067-0.043,0.166-0.076,0.284-0.104l0.295-0.091l0.201-0.08v0.688
			H81.965z"/>
		<path fill="#FFFFFF" d="M76.455,23.489l-0.265-0.123l-0.271-0.093c-0.153-0.057-0.264-0.122-0.336-0.196
			c-0.072-0.072-0.107-0.166-0.107-0.271c0-0.116,0.046-0.217,0.135-0.297c0.094-0.083,0.201-0.125,0.32-0.125
			c0.135,0,0.259,0.039,0.367,0.121c0.108,0.08,0.19,0.189,0.242,0.326h0.047l0.078-0.258l0.03-0.111l0.052-0.137
			c-0.16-0.07-0.283-0.117-0.383-0.138c-0.098-0.022-0.164-0.039-0.207-0.044c-0.035-0.005-0.107-0.008-0.217-0.008
			c-0.285,0-0.521,0.083-0.704,0.246c-0.187,0.162-0.278,0.369-0.278,0.623c0,0.133,0.035,0.257,0.099,0.373
			c0.065,0.117,0.149,0.205,0.253,0.268c0.1,0.063,0.232,0.124,0.404,0.186l0.181,0.07c0.29,0.108,0.435,0.262,0.435,0.463
			c0,0.133-0.052,0.241-0.154,0.326c-0.104,0.083-0.232,0.126-0.389,0.126c-0.107,0-0.223-0.026-0.33-0.079
			c-0.115-0.061-0.191-0.117-0.244-0.172c-0.047-0.054-0.082-0.121-0.108-0.197l-0.052,0.026l-0.036,0.181l-0.021,0.086
			l-0.037,0.154l-0.035,0.104c0.248,0.125,0.512,0.185,0.807,0.185c0.32,0,0.585-0.09,0.797-0.271
			c0.207-0.185,0.311-0.409,0.311-0.68C76.836,23.862,76.709,23.639,76.455,23.489z"/>
		<path fill="#FFFFFF" d="M66.922,22.136c-0.408,0-0.74,0.137-0.988,0.417c-0.254,0.276-0.383,0.634-0.383,1.073
			c0,0.461,0.135,0.82,0.398,1.084c0.259,0.265,0.621,0.394,1.071,0.394c0.191,0,0.356-0.019,0.497-0.06
			c0.145-0.041,0.289-0.11,0.439-0.209c0.021-0.07,0.041-0.147,0.067-0.233c0.025-0.085,0.041-0.146,0.057-0.181l-0.047-0.031
			l-0.217,0.186c-0.036,0.029-0.124,0.073-0.259,0.135c-0.14,0.061-0.295,0.091-0.471,0.091c-0.264,0-0.481-0.099-0.652-0.292
			c-0.166-0.197-0.254-0.445-0.254-0.75v-0.085l0.916-0.017l0.528,0.017h0.491l0.016-0.14l0.005-0.09
			c0-0.396-0.108-0.713-0.331-0.951C67.59,22.255,67.295,22.136,66.922,22.136z M67.212,23.383H66.69l-0.508-0.005
			c0-0.295,0.073-0.533,0.207-0.711c0.135-0.182,0.306-0.271,0.518-0.271c0.197,0,0.353,0.085,0.461,0.26
			c0.113,0.172,0.171,0.414,0.171,0.719L67.212,23.383z"/>
		<path fill="#FFFFFF" d="M48.294,22.183c-0.052,0.016-0.114,0.036-0.176,0.064c-0.125,0.067-0.207,0.127-0.254,0.185l-0.108,0.167
			l-0.083,0.184V22.63v-0.172l0.021-0.26c-0.062,0.014-0.119,0.019-0.176,0.023c-0.057,0.002-0.104,0.005-0.145,0.005l-0.306-0.028
			l0.016,0.781l0.016,0.577l-0.016,0.885l-0.026,0.61l0.316-0.016l0.336,0.016l-0.021-0.618l-0.016-0.492l0.016-0.592
			c0.016-0.129,0.046-0.235,0.083-0.317c0.052-0.091,0.124-0.164,0.207-0.218c0.088-0.057,0.181-0.083,0.279-0.083
			c0.093,0,0.176,0.029,0.259,0.085l0.046-0.034v-0.31v-0.312h-0.093C48.409,22.161,48.352,22.169,48.294,22.183z"/>
		<path fill="#FFFFFF" d="M91.58,23.489l-0.265-0.123l-0.269-0.093c-0.155-0.057-0.271-0.122-0.342-0.196
			c-0.072-0.072-0.108-0.166-0.108-0.271c0-0.116,0.046-0.217,0.14-0.297c0.088-0.083,0.196-0.125,0.32-0.125
			c0.135,0,0.254,0.039,0.367,0.121c0.108,0.08,0.19,0.189,0.242,0.326h0.047l0.072-0.258l0.031-0.111l0.057-0.137
			c-0.16-0.07-0.289-0.117-0.388-0.138c-0.099-0.022-0.166-0.039-0.202-0.044c-0.041-0.005-0.113-0.008-0.217-0.008
			c-0.29,0-0.521,0.083-0.709,0.246c-0.188,0.162-0.273,0.369-0.273,0.623c0,0.133,0.03,0.257,0.099,0.373
			c0.067,0.117,0.149,0.205,0.247,0.268c0.104,0.063,0.238,0.124,0.404,0.186l0.187,0.07c0.284,0.108,0.43,0.262,0.43,0.463
			c0,0.133-0.052,0.241-0.155,0.326c-0.104,0.083-0.232,0.126-0.388,0.126c-0.108,0-0.218-0.026-0.332-0.079
			c-0.112-0.061-0.19-0.117-0.237-0.172c-0.047-0.054-0.082-0.121-0.113-0.197l-0.053,0.026l-0.03,0.181l-0.021,0.086l-0.037,0.154
			l-0.035,0.104c0.242,0.125,0.512,0.185,0.802,0.185c0.325,0,0.59-0.09,0.797-0.271c0.212-0.185,0.315-0.409,0.315-0.68
			C91.961,23.862,91.834,23.639,91.58,23.489z"/>
		<path fill="#FFFFFF" d="M86.135,22.39c0.379,0,0.605,0.209,0.688,0.631l0.058-0.01l0.041-0.158l0.047-0.122l0.058-0.132
			l0.065-0.143c-0.159-0.121-0.305-0.205-0.438-0.246c-0.129-0.043-0.3-0.064-0.507-0.064c-0.445,0-0.803,0.137-1.076,0.414
			c-0.279,0.273-0.414,0.628-0.414,1.061c0,0.436,0.141,0.789,0.42,1.066c0.278,0.273,0.637,0.412,1.075,0.412
			c0.295,0,0.569-0.075,0.813-0.225l0.031-0.18l0.057-0.195l-0.057-0.031c-0.224,0.22-0.457,0.326-0.709,0.326
			c-0.291,0-0.529-0.114-0.715-0.342c-0.182-0.229-0.273-0.522-0.273-0.886c0-0.342,0.076-0.626,0.238-0.846
			C85.69,22.501,85.893,22.39,86.135,22.39z"/>
		<path fill="#FFFFFF" d="M89.903,24.762c-0.058,0.021-0.108,0.03-0.142,0.03c-0.145,0-0.227-0.043-0.241-0.135
			c-0.021-0.093-0.026-0.228-0.026-0.406v-0.916v-0.42c0-0.246-0.082-0.436-0.238-0.569c-0.159-0.132-0.387-0.199-0.688-0.199
			c-0.191,0-0.367,0.028-0.521,0.085c-0.155,0.055-0.32,0.155-0.502,0.301l0.052,0.157l0.042,0.168h0.041
			c0.201-0.267,0.435-0.401,0.709-0.401c0.16,0,0.289,0.053,0.388,0.15c0.099,0.102,0.149,0.23,0.149,0.389
			c0,0.09-0.024,0.158-0.076,0.201c-0.053,0.045-0.155,0.086-0.311,0.125l-0.233,0.057c-0.269,0.07-0.45,0.133-0.554,0.185
			c-0.104,0.05-0.196,0.136-0.295,0.254c-0.094,0.119-0.141,0.279-0.141,0.479c0,0.242,0.072,0.437,0.229,0.587
			c0.149,0.149,0.353,0.222,0.601,0.222c0.336,0,0.604-0.124,0.817-0.373c0.078,0.249,0.238,0.373,0.477,0.373
			c0.046,0,0.088-0.002,0.124-0.007c0.036-0.011,0.071-0.019,0.112-0.028c0.074-0.027,0.156-0.064,0.244-0.115l-0.016-0.16
			L89.903,24.762L89.903,24.762z M88.924,24.11c0,0.139-0.021,0.252-0.063,0.34c-0.041,0.088-0.107,0.164-0.201,0.224
			s-0.197,0.088-0.3,0.088c-0.146,0-0.254-0.047-0.331-0.146c-0.083-0.096-0.125-0.232-0.125-0.41c0-0.109,0.026-0.209,0.072-0.303
			c0.047-0.094,0.104-0.162,0.166-0.205c0.066-0.043,0.166-0.076,0.285-0.104l0.295-0.091l0.201-0.08V24.11L88.924,24.11z"/>
		<path fill="#FFFFFF" d="M72.863,24.144c0-0.152-0.005-0.254-0.005-0.303l0.011-0.311v-0.252v-0.049
			c0-0.173-0.017-0.318-0.041-0.436c-0.031-0.116-0.109-0.256-0.229-0.416c-0.119-0.163-0.354-0.243-0.704-0.243
			c-0.367,0-0.667,0.149-0.886,0.446c-0.19-0.297-0.465-0.446-0.821-0.446c-0.265,0-0.461,0.052-0.585,0.151
			c-0.047,0.037-0.088,0.07-0.124,0.102c-0.052,0.044-0.083,0.074-0.095,0.088l-0.082,0.102l0.017-0.373
			c-0.114,0.013-0.213,0.021-0.301,0.021l-0.166-0.005l-0.176-0.023l0.026,0.66l0.031,0.559V23.6l-0.016,0.377l-0.016,0.47
			l-0.026,0.604c0.037-0.002,0.088-0.011,0.155-0.021h0.187l0.154,0.004l0.188,0.016l-0.025-0.564c0-0.098-0.006-0.222-0.016-0.365
			c-0.011-0.145-0.016-0.24-0.016-0.287v-0.237v-0.021V23.23c0-0.315,0.082-0.517,0.253-0.603c0.171-0.088,0.315-0.129,0.43-0.129
			c0.104,0,0.19,0.021,0.274,0.063c0.082,0.044,0.145,0.104,0.186,0.177c0.042,0.074,0.059,0.219,0.059,0.435v0.375v0.278
			l-0.037,0.492c0,0.111-0.006,0.243-0.016,0.401c-0.011,0.161-0.016,0.271-0.016,0.323l0.201-0.016h0.135l0.161,0.006l0.19,0.015
			l-0.041-0.556v-0.367v-0.299v-0.273v-0.047v-0.383c0-0.182,0.063-0.334,0.176-0.45c0.119-0.119,0.27-0.177,0.449-0.177
			c0.063,0,0.125,0.008,0.178,0.026c0.052,0.017,0.093,0.031,0.113,0.042c0.099,0.049,0.166,0.114,0.211,0.194
			c0.043,0.083,0.063,0.196,0.063,0.347v0.367v0.359l-0.036,0.486c0,0.065-0.005,0.182-0.011,0.352
			c-0.011,0.172-0.017,0.296-0.017,0.373l0.207-0.016h0.141h0.088l0.094,0.006c0.016,0,0.031,0.002,0.057,0.01h0.053h0.057
			l-0.035-0.59C72.869,24.399,72.869,24.296,72.863,24.144z"/>
		<path fill="#FFFFFF" d="M54.219,24.762c-0.057,0.021-0.104,0.03-0.14,0.03c-0.145,0-0.228-0.043-0.243-0.135
			c-0.021-0.093-0.026-0.228-0.026-0.406v-0.916v-0.42c0-0.246-0.083-0.436-0.238-0.569c-0.161-0.132-0.388-0.199-0.688-0.199
			c-0.191,0-0.368,0.028-0.523,0.085c-0.155,0.055-0.321,0.155-0.501,0.301l0.057,0.157l0.036,0.168h0.042
			c0.202-0.267,0.435-0.401,0.709-0.401c0.16,0,0.29,0.053,0.388,0.15c0.098,0.102,0.15,0.23,0.15,0.389
			c0,0.09-0.026,0.158-0.078,0.201c-0.052,0.045-0.155,0.086-0.305,0.125l-0.238,0.057c-0.264,0.07-0.45,0.133-0.554,0.185
			c-0.098,0.05-0.197,0.136-0.295,0.254c-0.093,0.119-0.14,0.279-0.14,0.479c0,0.242,0.073,0.437,0.228,0.587
			c0.15,0.149,0.352,0.222,0.6,0.222c0.336,0,0.605-0.124,0.817-0.373c0.078,0.249,0.238,0.373,0.481,0.373
			c0.042,0,0.083-0.002,0.119-0.007c0.036-0.011,0.073-0.019,0.114-0.028c0.077-0.027,0.155-0.064,0.243-0.115l-0.016-0.16
			L54.219,24.762L54.219,24.762z M53.241,24.11c0,0.139-0.021,0.252-0.062,0.34c-0.042,0.088-0.109,0.164-0.202,0.224
			c-0.093,0.06-0.196,0.088-0.3,0.088c-0.145,0-0.254-0.047-0.331-0.146c-0.083-0.096-0.119-0.232-0.119-0.41
			c0-0.109,0.021-0.209,0.067-0.303s0.104-0.162,0.166-0.205c0.067-0.043,0.166-0.076,0.285-0.104l0.295-0.091l0.202-0.08v0.688
			H53.241z"/>
		<path fill="#FFFFFF" d="M55.156,21.479l0.026-0.616c-0.067,0.01-0.125,0.018-0.176,0.021c-0.051,0.002-0.103,0.005-0.15,0.005
			l-0.336-0.026l0.026,0.637l0.025,0.563v0.853l-0.025,0.675v0.846l-0.026,0.616l0.326-0.016l0.331,0.016l-0.021-0.646l-0.016-0.576
			l-0.016-0.904l0.016-0.743L55.156,21.479z"/>
		<path fill="#FFFFFF" d="M50.019,22.136c-0.404,0-0.735,0.137-0.988,0.417c-0.253,0.276-0.378,0.634-0.378,1.073
			c0,0.461,0.129,0.82,0.393,1.084c0.264,0.265,0.621,0.394,1.077,0.394c0.186,0,0.352-0.019,0.497-0.06
			c0.14-0.041,0.29-0.11,0.44-0.209c0.015-0.07,0.036-0.147,0.062-0.233c0.031-0.085,0.046-0.146,0.057-0.181l-0.041-0.031
			l-0.217,0.186c-0.037,0.029-0.125,0.073-0.264,0.135c-0.134,0.061-0.295,0.091-0.471,0.091c-0.264,0-0.476-0.099-0.647-0.292
			c-0.17-0.197-0.253-0.445-0.253-0.75v-0.085l0.911-0.017l0.528,0.017h0.492l0.015-0.14l0.005-0.09
			c0-0.396-0.109-0.713-0.326-0.951C50.686,22.255,50.391,22.136,50.019,22.136z M50.308,23.383H49.79l-0.507-0.005
			c0-0.295,0.067-0.533,0.202-0.711c0.135-0.182,0.311-0.271,0.518-0.271c0.197,0,0.352,0.085,0.466,0.26
			c0.114,0.172,0.166,0.414,0.166,0.719L50.308,23.383z"/>
		<path fill="#FFFFFF" d="M57.086,22.136c-0.409,0-0.74,0.137-0.994,0.417c-0.253,0.276-0.378,0.634-0.378,1.073
			c0,0.461,0.13,0.82,0.394,1.084c0.264,0.265,0.621,0.394,1.076,0.394c0.187,0,0.352-0.019,0.497-0.06
			c0.14-0.041,0.29-0.11,0.439-0.209c0.016-0.07,0.042-0.147,0.067-0.233c0.026-0.085,0.042-0.146,0.052-0.181l-0.042-0.031
			l-0.217,0.186c-0.036,0.029-0.124,0.073-0.264,0.135c-0.135,0.061-0.295,0.091-0.466,0.091c-0.264,0-0.481-0.099-0.652-0.292
			c-0.17-0.197-0.253-0.445-0.253-0.75v-0.085l0.916-0.017l0.528,0.017h0.486l0.021-0.14l0.005-0.09
			c0-0.396-0.114-0.713-0.331-0.951C57.753,22.255,57.454,22.136,57.086,22.136z M57.372,23.383h-0.518l-0.507-0.005
			c0-0.295,0.067-0.533,0.202-0.711c0.135-0.182,0.311-0.271,0.518-0.271c0.197,0,0.352,0.085,0.466,0.26
			c0.114,0.172,0.171,0.414,0.171,0.719L57.372,23.383z"/>
		<path fill="#FFFFFF" d="M63.844,24.762c-0.062,0.021-0.109,0.03-0.145,0.03c-0.145,0-0.223-0.043-0.243-0.135
			c-0.016-0.093-0.026-0.228-0.026-0.406v-0.916v-0.42c0-0.246-0.078-0.436-0.238-0.569c-0.161-0.132-0.388-0.199-0.683-0.199
			c-0.191,0-0.368,0.028-0.523,0.085c-0.155,0.055-0.326,0.155-0.502,0.301l0.052,0.157l0.037,0.168h0.046
			c0.197-0.267,0.435-0.401,0.704-0.401c0.166,0,0.295,0.053,0.394,0.15c0.098,0.102,0.145,0.23,0.145,0.389
			c0,0.09-0.021,0.158-0.073,0.201c-0.052,0.045-0.155,0.086-0.311,0.125l-0.238,0.057c-0.264,0.07-0.445,0.133-0.549,0.185
			c-0.104,0.05-0.202,0.136-0.295,0.254c-0.098,0.119-0.145,0.279-0.145,0.479c0,0.242,0.077,0.437,0.228,0.587
			c0.155,0.149,0.357,0.222,0.605,0.222c0.331,0,0.605-0.124,0.817-0.373c0.078,0.249,0.233,0.373,0.476,0.373
			c0.046,0,0.088-0.002,0.125-0.007c0.031-0.011,0.072-0.019,0.113-0.028c0.073-0.027,0.155-0.064,0.244-0.115l-0.016-0.16
			L63.844,24.762L63.844,24.762z M62.861,24.11c0,0.139-0.021,0.252-0.057,0.34c-0.042,0.088-0.109,0.164-0.202,0.224
			c-0.099,0.06-0.197,0.088-0.3,0.088c-0.145,0-0.259-0.047-0.336-0.146c-0.078-0.096-0.119-0.232-0.119-0.41
			c0-0.109,0.026-0.209,0.067-0.303c0.047-0.094,0.104-0.162,0.171-0.205s0.16-0.076,0.285-0.104l0.295-0.091l0.197-0.08
			L62.861,24.11L62.861,24.11z"/>
		<path fill="#FFFFFF" d="M60.46,22.226h-0.605h-0.414l-0.74-0.027l0.005,0.142l-0.016,0.249l0.538-0.026
			c0.119-0.019,0.228-0.026,0.311-0.026h0.196h0.481l-0.476,0.696l-0.559,0.735l-0.652,0.831l0.01,0.118l-0.01,0.135
			c0.062,0,0.15-0.002,0.269-0.008c0.119-0.004,0.212-0.008,0.27-0.008h0.652h0.285h0.274l0.688,0.016l-0.01-0.155l0.015-0.233
			l-0.683,0.021l-0.486,0.031h-0.187h-0.259l0.233-0.354l0.212-0.309l0.352-0.48l0.269-0.367l0.269-0.336l0.326-0.412l-0.005-0.121
			l0.01-0.137L60.46,22.226z"/>
		<path fill="#FFFFFF" d="M94.922,24.762c-0.063,0.021-0.108,0.03-0.146,0.03c-0.146,0-0.224-0.043-0.243-0.135
			c-0.016-0.093-0.025-0.228-0.025-0.406v-0.916v-0.42c0-0.246-0.077-0.436-0.237-0.569c-0.161-0.132-0.39-0.199-0.685-0.199
			c-0.195,0-0.367,0.028-0.526,0.085c-0.149,0.055-0.321,0.155-0.497,0.301l0.052,0.157l0.036,0.168h0.047
			c0.196-0.267,0.436-0.401,0.704-0.401c0.16,0,0.295,0.049,0.394,0.15s0.145,0.23,0.145,0.389c0,0.09-0.025,0.158-0.077,0.201
			c-0.047,0.045-0.149,0.086-0.306,0.125l-0.237,0.057c-0.265,0.07-0.45,0.133-0.549,0.182c-0.104,0.053-0.202,0.137-0.295,0.256
			c-0.099,0.119-0.146,0.279-0.146,0.479c0,0.244,0.077,0.438,0.229,0.588c0.154,0.15,0.355,0.222,0.605,0.222
			c0.33,0,0.604-0.124,0.813-0.373c0.076,0.249,0.236,0.373,0.48,0.373c0.047,0,0.088-0.002,0.119-0.007
			c0.035-0.008,0.077-0.02,0.118-0.029c0.072-0.025,0.155-0.064,0.243-0.115l-0.016-0.158V24.762L94.922,24.762z M93.938,24.11
			c0,0.139-0.021,0.252-0.058,0.34c-0.041,0.088-0.107,0.164-0.207,0.224c-0.092,0.06-0.19,0.088-0.299,0.088
			c-0.141,0-0.254-0.047-0.332-0.146c-0.078-0.096-0.119-0.232-0.119-0.41c0-0.109,0.021-0.209,0.067-0.303
			c0.046-0.095,0.104-0.162,0.171-0.205c0.067-0.043,0.16-0.076,0.284-0.104l0.295-0.091l0.196-0.08L93.938,24.11L93.938,24.11z"/>
	</g>
</g>
</svg>
