<?xml version="1.0" encoding="utf-8"?>
<!-- Generator: Adobe Illustrator 16.0.0, SVG Export Plug-In . SVG Version: 6.00 Build 0)  -->
<!DOCTYPE svg PUBLIC "-//W3C//DTD SVG 1.1//EN" "http://www.w3.org/Graphics/SVG/1.1/DTD/svg11.dtd">
<svg version="1.1" id="Layer_1" xmlns="http://www.w3.org/2000/svg" xmlns:xlink="http://www.w3.org/1999/xlink" x="0px" y="0px"
	 width="15px" height="15px" viewBox="0 0 15 15" enable-background="new 0 0 15 15" xml:space="preserve">
<g>
	<path d="M14.998,7.308c0,4.033-3.294,7.305-7.361,7.305c-1.292,0-2.502-0.33-3.558-0.911L0.002,15l1.328-3.923
		c-0.669-1.1-1.056-2.392-1.056-3.771C0.274,3.272,3.57,0,7.64,0C11.704,0,14.998,3.272,14.998,7.308L14.998,7.308z M7.637,1.166
		c-3.412,0-6.19,2.755-6.19,6.142c0,1.344,0.438,2.587,1.181,3.601L1.853,13.19l2.379-0.758c0.979,0.643,2.149,1.018,3.405,1.018
		c3.412,0,6.189-2.756,6.189-6.142C13.826,3.921,11.049,1.166,7.637,1.166L7.637,1.166z M11.354,8.99
		c-0.046-0.076-0.164-0.121-0.346-0.209c-0.18-0.092-1.068-0.523-1.233-0.582C9.609,8.139,9.49,8.107,9.37,8.289
		c-0.118,0.18-0.466,0.58-0.572,0.703c-0.105,0.119-0.211,0.133-0.39,0.045C8.227,8.945,7.644,8.758,6.956,8.148
		c-0.537-0.475-0.9-1.061-1.006-1.242C5.846,6.727,5.941,6.632,6.029,6.543c0.082-0.081,0.182-0.209,0.273-0.315
		c0.09-0.105,0.119-0.179,0.179-0.298c0.059-0.12,0.03-0.225-0.015-0.313C6.422,5.526,6.061,4.645,5.91,4.287
		C5.76,3.929,5.609,3.989,5.504,3.989c-0.104,0-0.225-0.015-0.346-0.015c-0.12,0-0.315,0.043-0.48,0.225
		C4.511,4.378,4.045,4.81,4.045,5.691c0,0.883,0.647,1.734,0.737,1.853c0.092,0.118,1.25,1.987,3.084,2.703
		c1.835,0.717,1.835,0.477,2.165,0.447c0.332-0.031,1.067-0.434,1.218-0.852C11.4,9.424,11.4,9.066,11.354,8.99L11.354,8.99z
		 M11.354,8.99"/>
</g>
</svg>
