<?xml version="1.0" encoding="utf-8"?>
<!-- Generator: Adobe Illustrator 16.0.0, SVG Export Plug-In . SVG Version: 6.00 Build 0)  -->
<!DOCTYPE svg PUBLIC "-//W3C//DTD SVG 1.1//EN" "http://www.w3.org/Graphics/SVG/1.1/DTD/svg11.dtd">
<svg version="1.1" id="Layer_1" xmlns="http://www.w3.org/2000/svg" xmlns:xlink="http://www.w3.org/1999/xlink" x="0px" y="0px"
	 width="15px" height="15px" viewBox="0 0 15 15" enable-background="new 0 0 15 15" xml:space="preserve">
<path fill-rule="evenodd" clip-rule="evenodd" fill="#494849" d="M13.181,15H1.818C0.814,15,0,14.186,0,13.181V1.818
	C0,0.814,0.814,0,1.818,0h11.362C14.186,0,15,0.814,15,1.818v11.362C15,14.186,14.186,15,13.181,15z M5.995,2.146L5.522,3.878
	L5.05,2.146H4.357l0.85,2.645v1.795h0.63V4.791l0.819-2.645H5.995z M8.45,4.193c0-0.095-0.03-0.315-0.03-0.315
	C8.284,3.428,7.909,3.3,7.705,3.263C7.623,3.248,7.512,3.248,7.427,3.264c-0.206,0.039-0.574,0.17-0.708,0.614
	c0,0-0.032,0.221-0.032,0.315c0,0.094,0,1.573,0,1.573s0.008,0.27,0.158,0.505C6.958,6.45,7.154,6.606,7.468,6.643
	C7.51,6.646,7.649,6.645,7.7,6.638c0.297-0.04,0.485-0.193,0.593-0.366C8.442,6.036,8.45,5.767,8.45,5.767S8.45,4.287,8.45,4.193z
	 M10.687,3.279h-0.598V5.83C9.993,6.051,9.742,6.113,9.742,6.113c-0.221,0-0.188-0.157-0.188-0.157V3.279h-0.6c0,0,0,2.551,0,2.866
	c0,0.314,0.158,0.503,0.474,0.503c0.314,0,0.661-0.408,0.661-0.408v0.377h0.598V3.279z M11.024,7.337
	C10.412,7.23,9.719,7.257,7.509,7.23c-1.493,0-2.242,0.026-2.344,0.026C4.205,7.311,3.54,7.178,3.299,8.216
	C3.193,8.802,3.14,9.548,3.14,10.12c0.053,1.24-0.053,2.73,1.145,2.838c0.614,0.054,2.212,0.079,3.265,0.079
	c1.438,0,2.996-0.026,3.529-0.134c0.233-0.057,0.439-0.298,0.507-0.398c0.312-0.418,0.317-1.048,0.345-2.397
	C11.878,8.961,11.957,7.47,11.024,7.337z M10.491,11.957c-0.852,0-0.825-0.799-0.825-0.799s0-1.227,0-1.333S9.719,9.56,9.719,9.56
	c0.056-0.16,0.108-0.48,0.746-0.48c0.746,0,0.72,0.746,0.72,0.746V10.6h-1.012c0,0,0,0.398,0,0.559c0,0.158,0.079,0.319,0.292,0.319
	c0.214,0,0.214-0.319,0.214-0.319v-0.214h0.506c0,0,0.026,0.133-0.026,0.48C11.079,11.904,10.491,11.957,10.491,11.957z
	 M10.176,10.158h0.506V9.812c0,0-0.026-0.292-0.24-0.292c-0.213,0-0.266,0.239-0.266,0.292
	C10.176,9.865,10.176,10.158,10.176,10.158z M8.867,11.943c-0.319,0-0.506-0.187-0.612-0.319v0.293H7.749V8.134h0.506v1.226
	c0,0,0.267-0.32,0.507-0.32c0.239,0,0.479,0.159,0.479,0.507c0,0.346,0,1.865,0,1.865S9.186,11.943,8.867,11.943z M8.735,9.812
	c0-0.186-0.082-0.292-0.214-0.292c-0.134,0-0.24,0.106-0.24,0.106v1.731c0.08,0.106,0.24,0.106,0.24,0.106
	c0.214,0,0.214-0.24,0.214-0.24S8.735,9.998,8.735,9.812z M6.789,11.596c0,0-0.266,0.348-0.559,0.348
	c-0.293,0-0.401-0.187-0.401-0.532c0-0.348,0-2.318,0-2.318h0.506v2.265c0,0,0,0.106,0.134,0.106c0.132,0,0.319-0.188,0.319-0.24
	s0-2.131,0-2.131h0.506v2.824H6.789V11.596z M5.112,8.666v3.225H4.551V8.666H3.965V8.107h1.759c0,0,0.026,0.559,0,0.559
	S5.112,8.666,5.112,8.666z M7.853,5.767c0,0.379-0.283,0.347-0.283,0.347S7.254,6.146,7.254,5.767c0-0.377,0-1.133,0-1.573
	c0-0.441,0.315-0.41,0.315-0.41c0.315,0,0.283,0.41,0.283,0.41S7.853,5.39,7.853,5.767z"/>
</svg>
